%YAML 1.1
%TAG !u! tag:unity3d.com,2011:
--- !u!1 &1864335996209629828
GameObject:
  m_ObjectHideFlags: 0
  m_CorrespondingSourceObject: {fileID: 0}
  m_PrefabInstance: {fileID: 0}
  m_PrefabAsset: {fileID: 0}
  serializedVersion: 6
  m_Component:
  - component: {fileID: 6404792472346627669}
  - component: {fileID: 3202497976659437905}
  m_Layer: 31
  m_Name: gameboy
  m_TagString: Untagged
  m_Icon: {fileID: 0}
  m_NavMeshLayer: 0
  m_StaticEditorFlags: 0
  m_IsActive: 1
--- !u!4 &6404792472346627669
Transform:
  m_ObjectHideFlags: 0
  m_CorrespondingSourceObject: {fileID: 0}
  m_PrefabInstance: {fileID: 0}
  m_PrefabAsset: {fileID: 0}
  m_GameObject: {fileID: 1864335996209629828}
  m_LocalRotation: {x: 0, y: 0, z: 0, w: 1}
  m_LocalPosition: {x: 0, y: 0, z: 0}
  m_LocalScale: {x: 1, y: 1, z: 1}
  m_Children:
  - {fileID: 1872875336802878397}
  m_Father: {fileID: 0}
  m_RootOrder: 0
  m_LocalEulerAnglesHint: {x: 0, y: 0, z: 0}
--- !u!156049354 &3202497976659437905
Grid:
  m_ObjectHideFlags: 0
  m_CorrespondingSourceObject: {fileID: 0}
  m_PrefabInstance: {fileID: 0}
  m_PrefabAsset: {fileID: 0}
  m_GameObject: {fileID: 1864335996209629828}
  m_Enabled: 1
  m_CellSize: {x: 1, y: 1, z: 0}
  m_CellGap: {x: 0, y: 0, z: 0}
  m_CellLayout: 0
  m_CellSwizzle: 0
--- !u!1 &9204873830577462782
GameObject:
  m_ObjectHideFlags: 0
  m_CorrespondingSourceObject: {fileID: 0}
  m_PrefabInstance: {fileID: 0}
  m_PrefabAsset: {fileID: 0}
  serializedVersion: 6
  m_Component:
  - component: {fileID: 1872875336802878397}
  - component: {fileID: 3113624546673348018}
  - component: {fileID: 4304652167340473015}
  m_Layer: 0
  m_Name: Layer1
  m_TagString: Untagged
  m_Icon: {fileID: 0}
  m_NavMeshLayer: 0
  m_StaticEditorFlags: 0
  m_IsActive: 1
--- !u!4 &1872875336802878397
Transform:
  m_ObjectHideFlags: 0
  m_CorrespondingSourceObject: {fileID: 0}
  m_PrefabInstance: {fileID: 0}
  m_PrefabAsset: {fileID: 0}
  m_GameObject: {fileID: 9204873830577462782}
  m_LocalRotation: {x: -0, y: -0, z: -0, w: 1}
  m_LocalPosition: {x: 0, y: 0, z: 0}
  m_LocalScale: {x: 1, y: 1, z: 1}
  m_Children: []
  m_Father: {fileID: 6404792472346627669}
  m_RootOrder: 0
  m_LocalEulerAnglesHint: {x: 0, y: 0, z: 0}
--- !u!1839735485 &3113624546673348018
Tilemap:
  m_ObjectHideFlags: 0
  m_CorrespondingSourceObject: {fileID: 0}
  m_PrefabInstance: {fileID: 0}
  m_PrefabAsset: {fileID: 0}
  m_GameObject: {fileID: 9204873830577462782}
  m_Enabled: 1
  m_Tiles:
  - first: {x: 0, y: -12, z: 0}
    second:
      serializedVersion: 2
      m_TileIndex: 142
      m_TileSpriteIndex: 142
      m_TileMatrixIndex: 0
      m_TileColorIndex: 0
      m_TileObjectToInstantiateIndex: 65535
      m_AllTileFlags: 1073741825
  - first: {x: 1, y: -12, z: 0}
    second:
      serializedVersion: 2
      m_TileIndex: 143
      m_TileSpriteIndex: 143
      m_TileMatrixIndex: 0
      m_TileColorIndex: 0
      m_TileObjectToInstantiateIndex: 65535
      m_AllTileFlags: 1073741825
  - first: {x: 2, y: -12, z: 0}
    second:
      serializedVersion: 2
      m_TileIndex: 144
      m_TileSpriteIndex: 144
      m_TileMatrixIndex: 0
      m_TileColorIndex: 0
      m_TileObjectToInstantiateIndex: 65535
      m_AllTileFlags: 1073741825
  - first: {x: 3, y: -12, z: 0}
    second:
      serializedVersion: 2
      m_TileIndex: 145
      m_TileSpriteIndex: 145
      m_TileMatrixIndex: 0
      m_TileColorIndex: 0
      m_TileObjectToInstantiateIndex: 65535
      m_AllTileFlags: 1073741825
  - first: {x: 6, y: -12, z: 0}
    second:
      serializedVersion: 2
      m_TileIndex: 146
      m_TileSpriteIndex: 146
      m_TileMatrixIndex: 0
      m_TileColorIndex: 0
      m_TileObjectToInstantiateIndex: 65535
      m_AllTileFlags: 1073741825
  - first: {x: 7, y: -12, z: 0}
    second:
      serializedVersion: 2
      m_TileIndex: 147
      m_TileSpriteIndex: 147
      m_TileMatrixIndex: 0
      m_TileColorIndex: 0
      m_TileObjectToInstantiateIndex: 65535
      m_AllTileFlags: 1073741825
  - first: {x: 8, y: -12, z: 0}
    second:
      serializedVersion: 2
      m_TileIndex: 148
      m_TileSpriteIndex: 148
      m_TileMatrixIndex: 0
      m_TileColorIndex: 0
      m_TileObjectToInstantiateIndex: 65535
      m_AllTileFlags: 1073741825
  - first: {x: 10, y: -12, z: 0}
    second:
      serializedVersion: 2
      m_TileIndex: 149
      m_TileSpriteIndex: 149
      m_TileMatrixIndex: 0
      m_TileColorIndex: 0
      m_TileObjectToInstantiateIndex: 65535
      m_AllTileFlags: 1073741825
  - first: {x: 11, y: -12, z: 0}
    second:
      serializedVersion: 2
      m_TileIndex: 150
      m_TileSpriteIndex: 150
      m_TileMatrixIndex: 0
      m_TileColorIndex: 0
      m_TileObjectToInstantiateIndex: 65535
      m_AllTileFlags: 1073741825
  - first: {x: 12, y: -12, z: 0}
    second:
      serializedVersion: 2
      m_TileIndex: 151
      m_TileSpriteIndex: 151
      m_TileMatrixIndex: 0
      m_TileColorIndex: 0
      m_TileObjectToInstantiateIndex: 65535
      m_AllTileFlags: 1073741825
  - first: {x: 0, y: -11, z: 0}
    second:
      serializedVersion: 2
      m_TileIndex: 130
      m_TileSpriteIndex: 130
      m_TileMatrixIndex: 0
      m_TileColorIndex: 0
      m_TileObjectToInstantiateIndex: 65535
      m_AllTileFlags: 1073741825
  - first: {x: 1, y: -11, z: 0}
    second:
      serializedVersion: 2
      m_TileIndex: 131
      m_TileSpriteIndex: 131
      m_TileMatrixIndex: 0
      m_TileColorIndex: 0
      m_TileObjectToInstantiateIndex: 65535
      m_AllTileFlags: 1073741825
  - first: {x: 2, y: -11, z: 0}
    second:
      serializedVersion: 2
      m_TileIndex: 132
      m_TileSpriteIndex: 132
      m_TileMatrixIndex: 0
      m_TileColorIndex: 0
      m_TileObjectToInstantiateIndex: 65535
      m_AllTileFlags: 1073741825
  - first: {x: 3, y: -11, z: 0}
    second:
      serializedVersion: 2
      m_TileIndex: 133
      m_TileSpriteIndex: 133
      m_TileMatrixIndex: 0
      m_TileColorIndex: 0
      m_TileObjectToInstantiateIndex: 65535
      m_AllTileFlags: 1073741825
  - first: {x: 4, y: -11, z: 0}
    second:
      serializedVersion: 2
      m_TileIndex: 134
      m_TileSpriteIndex: 134
      m_TileMatrixIndex: 0
      m_TileColorIndex: 0
      m_TileObjectToInstantiateIndex: 65535
      m_AllTileFlags: 1073741825
  - first: {x: 5, y: -11, z: 0}
    second:
      serializedVersion: 2
      m_TileIndex: 135
      m_TileSpriteIndex: 135
      m_TileMatrixIndex: 0
      m_TileColorIndex: 0
      m_TileObjectToInstantiateIndex: 65535
      m_AllTileFlags: 1073741825
  - first: {x: 6, y: -11, z: 0}
    second:
      serializedVersion: 2
      m_TileIndex: 136
      m_TileSpriteIndex: 136
      m_TileMatrixIndex: 0
      m_TileColorIndex: 0
      m_TileObjectToInstantiateIndex: 65535
      m_AllTileFlags: 1073741825
  - first: {x: 7, y: -11, z: 0}
    second:
      serializedVersion: 2
      m_TileIndex: 137
      m_TileSpriteIndex: 137
      m_TileMatrixIndex: 0
      m_TileColorIndex: 0
      m_TileObjectToInstantiateIndex: 65535
      m_AllTileFlags: 1073741825
  - first: {x: 8, y: -11, z: 0}
    second:
      serializedVersion: 2
      m_TileIndex: 138
      m_TileSpriteIndex: 138
      m_TileMatrixIndex: 0
      m_TileColorIndex: 0
      m_TileObjectToInstantiateIndex: 65535
      m_AllTileFlags: 1073741825
  - first: {x: 10, y: -11, z: 0}
    second:
      serializedVersion: 2
      m_TileIndex: 139
      m_TileSpriteIndex: 139
      m_TileMatrixIndex: 0
      m_TileColorIndex: 0
      m_TileObjectToInstantiateIndex: 65535
      m_AllTileFlags: 1073741825
  - first: {x: 11, y: -11, z: 0}
    second:
      serializedVersion: 2
      m_TileIndex: 140
      m_TileSpriteIndex: 140
      m_TileMatrixIndex: 0
      m_TileColorIndex: 0
      m_TileObjectToInstantiateIndex: 65535
      m_AllTileFlags: 1073741825
  - first: {x: 12, y: -11, z: 0}
    second:
      serializedVersion: 2
      m_TileIndex: 141
      m_TileSpriteIndex: 141
      m_TileMatrixIndex: 0
      m_TileColorIndex: 0
      m_TileObjectToInstantiateIndex: 65535
      m_AllTileFlags: 1073741825
  - first: {x: 0, y: -10, z: 0}
    second:
      serializedVersion: 2
      m_TileIndex: 119
      m_TileSpriteIndex: 119
      m_TileMatrixIndex: 0
      m_TileColorIndex: 0
      m_TileObjectToInstantiateIndex: 65535
      m_AllTileFlags: 1073741825
  - first: {x: 2, y: -10, z: 0}
    second:
      serializedVersion: 2
      m_TileIndex: 120
      m_TileSpriteIndex: 120
      m_TileMatrixIndex: 0
      m_TileColorIndex: 0
      m_TileObjectToInstantiateIndex: 65535
      m_AllTileFlags: 1073741825
  - first: {x: 3, y: -10, z: 0}
    second:
      serializedVersion: 2
      m_TileIndex: 121
      m_TileSpriteIndex: 121
      m_TileMatrixIndex: 0
      m_TileColorIndex: 0
      m_TileObjectToInstantiateIndex: 65535
      m_AllTileFlags: 1073741825
  - first: {x: 4, y: -10, z: 0}
    second:
      serializedVersion: 2
      m_TileIndex: 122
      m_TileSpriteIndex: 122
      m_TileMatrixIndex: 0
      m_TileColorIndex: 0
      m_TileObjectToInstantiateIndex: 65535
      m_AllTileFlags: 1073741825
  - first: {x: 5, y: -10, z: 0}
    second:
      serializedVersion: 2
      m_TileIndex: 123
      m_TileSpriteIndex: 123
      m_TileMatrixIndex: 0
      m_TileColorIndex: 0
      m_TileObjectToInstantiateIndex: 65535
      m_AllTileFlags: 1073741825
  - first: {x: 6, y: -10, z: 0}
    second:
      serializedVersion: 2
      m_TileIndex: 124
      m_TileSpriteIndex: 124
      m_TileMatrixIndex: 0
      m_TileColorIndex: 0
      m_TileObjectToInstantiateIndex: 65535
      m_AllTileFlags: 1073741825
  - first: {x: 7, y: -10, z: 0}
    second:
      serializedVersion: 2
      m_TileIndex: 125
      m_TileSpriteIndex: 125
      m_TileMatrixIndex: 0
      m_TileColorIndex: 0
      m_TileObjectToInstantiateIndex: 65535
      m_AllTileFlags: 1073741825
  - first: {x: 8, y: -10, z: 0}
    second:
      serializedVersion: 2
      m_TileIndex: 126
      m_TileSpriteIndex: 126
      m_TileMatrixIndex: 0
      m_TileColorIndex: 0
      m_TileObjectToInstantiateIndex: 65535
      m_AllTileFlags: 1073741825
  - first: {x: 10, y: -10, z: 0}
    second:
      serializedVersion: 2
      m_TileIndex: 127
      m_TileSpriteIndex: 127
      m_TileMatrixIndex: 0
      m_TileColorIndex: 0
      m_TileObjectToInstantiateIndex: 65535
      m_AllTileFlags: 1073741825
  - first: {x: 11, y: -10, z: 0}
    second:
      serializedVersion: 2
      m_TileIndex: 128
      m_TileSpriteIndex: 128
      m_TileMatrixIndex: 0
      m_TileColorIndex: 0
      m_TileObjectToInstantiateIndex: 65535
      m_AllTileFlags: 1073741825
  - first: {x: 12, y: -10, z: 0}
    second:
      serializedVersion: 2
      m_TileIndex: 129
      m_TileSpriteIndex: 129
      m_TileMatrixIndex: 0
      m_TileColorIndex: 0
      m_TileObjectToInstantiateIndex: 65535
      m_AllTileFlags: 1073741825
  - first: {x: 0, y: -9, z: 0}
    second:
      serializedVersion: 2
      m_TileIndex: 106
      m_TileSpriteIndex: 106
      m_TileMatrixIndex: 0
      m_TileColorIndex: 0
      m_TileObjectToInstantiateIndex: 65535
      m_AllTileFlags: 1073741825
  - first: {x: 1, y: -9, z: 0}
    second:
      serializedVersion: 2
      m_TileIndex: 107
      m_TileSpriteIndex: 107
      m_TileMatrixIndex: 0
      m_TileColorIndex: 0
      m_TileObjectToInstantiateIndex: 65535
      m_AllTileFlags: 1073741825
  - first: {x: 2, y: -9, z: 0}
    second:
      serializedVersion: 2
      m_TileIndex: 108
      m_TileSpriteIndex: 108
      m_TileMatrixIndex: 0
      m_TileColorIndex: 0
      m_TileObjectToInstantiateIndex: 65535
      m_AllTileFlags: 1073741825
  - first: {x: 3, y: -9, z: 0}
    second:
      serializedVersion: 2
      m_TileIndex: 109
      m_TileSpriteIndex: 109
      m_TileMatrixIndex: 0
      m_TileColorIndex: 0
      m_TileObjectToInstantiateIndex: 65535
      m_AllTileFlags: 1073741825
  - first: {x: 4, y: -9, z: 0}
    second:
      serializedVersion: 2
      m_TileIndex: 110
      m_TileSpriteIndex: 110
      m_TileMatrixIndex: 0
      m_TileColorIndex: 0
      m_TileObjectToInstantiateIndex: 65535
      m_AllTileFlags: 1073741825
  - first: {x: 5, y: -9, z: 0}
    second:
      serializedVersion: 2
      m_TileIndex: 111
      m_TileSpriteIndex: 111
      m_TileMatrixIndex: 0
      m_TileColorIndex: 0
      m_TileObjectToInstantiateIndex: 65535
      m_AllTileFlags: 1073741825
  - first: {x: 6, y: -9, z: 0}
    second:
      serializedVersion: 2
      m_TileIndex: 112
      m_TileSpriteIndex: 112
      m_TileMatrixIndex: 0
      m_TileColorIndex: 0
      m_TileObjectToInstantiateIndex: 65535
      m_AllTileFlags: 1073741825
  - first: {x: 7, y: -9, z: 0}
    second:
      serializedVersion: 2
      m_TileIndex: 113
      m_TileSpriteIndex: 113
      m_TileMatrixIndex: 0
      m_TileColorIndex: 0
      m_TileObjectToInstantiateIndex: 65535
      m_AllTileFlags: 1073741825
  - first: {x: 8, y: -9, z: 0}
    second:
      serializedVersion: 2
      m_TileIndex: 114
      m_TileSpriteIndex: 114
      m_TileMatrixIndex: 0
      m_TileColorIndex: 0
      m_TileObjectToInstantiateIndex: 65535
      m_AllTileFlags: 1073741825
  - first: {x: 9, y: -9, z: 0}
    second:
      serializedVersion: 2
      m_TileIndex: 115
      m_TileSpriteIndex: 115
      m_TileMatrixIndex: 0
      m_TileColorIndex: 0
      m_TileObjectToInstantiateIndex: 65535
      m_AllTileFlags: 1073741825
  - first: {x: 10, y: -9, z: 0}
    second:
      serializedVersion: 2
      m_TileIndex: 116
      m_TileSpriteIndex: 116
      m_TileMatrixIndex: 0
      m_TileColorIndex: 0
      m_TileObjectToInstantiateIndex: 65535
      m_AllTileFlags: 1073741825
  - first: {x: 11, y: -9, z: 0}
    second:
      serializedVersion: 2
      m_TileIndex: 117
      m_TileSpriteIndex: 117
      m_TileMatrixIndex: 0
      m_TileColorIndex: 0
      m_TileObjectToInstantiateIndex: 65535
      m_AllTileFlags: 1073741825
  - first: {x: 12, y: -9, z: 0}
    second:
      serializedVersion: 2
      m_TileIndex: 118
      m_TileSpriteIndex: 118
      m_TileMatrixIndex: 0
      m_TileColorIndex: 0
      m_TileObjectToInstantiateIndex: 65535
      m_AllTileFlags: 1073741825
  - first: {x: 0, y: -8, z: 0}
    second:
      serializedVersion: 2
      m_TileIndex: 97
      m_TileSpriteIndex: 97
      m_TileMatrixIndex: 0
      m_TileColorIndex: 0
      m_TileObjectToInstantiateIndex: 65535
      m_AllTileFlags: 1073741825
  - first: {x: 1, y: -8, z: 0}
    second:
      serializedVersion: 2
      m_TileIndex: 98
      m_TileSpriteIndex: 98
      m_TileMatrixIndex: 0
      m_TileColorIndex: 0
      m_TileObjectToInstantiateIndex: 65535
      m_AllTileFlags: 1073741825
  - first: {x: 2, y: -8, z: 0}
    second:
      serializedVersion: 2
      m_TileIndex: 99
      m_TileSpriteIndex: 99
      m_TileMatrixIndex: 0
      m_TileColorIndex: 0
      m_TileObjectToInstantiateIndex: 65535
      m_AllTileFlags: 1073741825
  - first: {x: 5, y: -8, z: 0}
    second:
      serializedVersion: 2
      m_TileIndex: 100
      m_TileSpriteIndex: 100
      m_TileMatrixIndex: 0
      m_TileColorIndex: 0
      m_TileObjectToInstantiateIndex: 65535
      m_AllTileFlags: 1073741825
  - first: {x: 6, y: -8, z: 0}
    second:
      serializedVersion: 2
      m_TileIndex: 101
      m_TileSpriteIndex: 101
      m_TileMatrixIndex: 0
      m_TileColorIndex: 0
      m_TileObjectToInstantiateIndex: 65535
      m_AllTileFlags: 1073741825
  - first: {x: 7, y: -8, z: 0}
    second:
      serializedVersion: 2
      m_TileIndex: 102
      m_TileSpriteIndex: 102
      m_TileMatrixIndex: 0
      m_TileColorIndex: 0
      m_TileObjectToInstantiateIndex: 65535
      m_AllTileFlags: 1073741825
  - first: {x: 8, y: -8, z: 0}
    second:
      serializedVersion: 2
      m_TileIndex: 103
      m_TileSpriteIndex: 103
      m_TileMatrixIndex: 0
      m_TileColorIndex: 0
      m_TileObjectToInstantiateIndex: 65535
      m_AllTileFlags: 1073741825
  - first: {x: 10, y: -8, z: 0}
    second:
      serializedVersion: 2
      m_TileIndex: 104
      m_TileSpriteIndex: 104
      m_TileMatrixIndex: 0
      m_TileColorIndex: 0
      m_TileObjectToInstantiateIndex: 65535
      m_AllTileFlags: 1073741825
  - first: {x: 11, y: -8, z: 0}
    second:
      serializedVersion: 2
      m_TileIndex: 105
      m_TileSpriteIndex: 105
      m_TileMatrixIndex: 0
      m_TileColorIndex: 0
      m_TileObjectToInstantiateIndex: 65535
      m_AllTileFlags: 1073741825
  - first: {x: 0, y: -7, z: 0}
    second:
      serializedVersion: 2
      m_TileIndex: 85
      m_TileSpriteIndex: 85
      m_TileMatrixIndex: 0
      m_TileColorIndex: 0
      m_TileObjectToInstantiateIndex: 65535
      m_AllTileFlags: 1073741825
  - first: {x: 1, y: -7, z: 0}
    second:
      serializedVersion: 2
      m_TileIndex: 86
      m_TileSpriteIndex: 86
      m_TileMatrixIndex: 0
      m_TileColorIndex: 0
      m_TileObjectToInstantiateIndex: 65535
      m_AllTileFlags: 1073741825
  - first: {x: 2, y: -7, z: 0}
    second:
      serializedVersion: 2
      m_TileIndex: 87
      m_TileSpriteIndex: 87
      m_TileMatrixIndex: 0
      m_TileColorIndex: 0
      m_TileObjectToInstantiateIndex: 65535
      m_AllTileFlags: 1073741825
  - first: {x: 3, y: -7, z: 0}
    second:
      serializedVersion: 2
      m_TileIndex: 88
      m_TileSpriteIndex: 88
      m_TileMatrixIndex: 0
      m_TileColorIndex: 0
      m_TileObjectToInstantiateIndex: 65535
      m_AllTileFlags: 1073741825
  - first: {x: 4, y: -7, z: 0}
    second:
      serializedVersion: 2
      m_TileIndex: 89
      m_TileSpriteIndex: 89
      m_TileMatrixIndex: 0
      m_TileColorIndex: 0
      m_TileObjectToInstantiateIndex: 65535
      m_AllTileFlags: 1073741825
  - first: {x: 5, y: -7, z: 0}
    second:
      serializedVersion: 2
      m_TileIndex: 90
      m_TileSpriteIndex: 90
      m_TileMatrixIndex: 0
      m_TileColorIndex: 0
      m_TileObjectToInstantiateIndex: 65535
      m_AllTileFlags: 1073741825
  - first: {x: 6, y: -7, z: 0}
    second:
      serializedVersion: 2
      m_TileIndex: 91
      m_TileSpriteIndex: 91
      m_TileMatrixIndex: 0
      m_TileColorIndex: 0
      m_TileObjectToInstantiateIndex: 65535
      m_AllTileFlags: 1073741825
  - first: {x: 7, y: -7, z: 0}
    second:
      serializedVersion: 2
      m_TileIndex: 92
      m_TileSpriteIndex: 92
      m_TileMatrixIndex: 0
      m_TileColorIndex: 0
      m_TileObjectToInstantiateIndex: 65535
      m_AllTileFlags: 1073741825
  - first: {x: 9, y: -7, z: 0}
    second:
      serializedVersion: 2
      m_TileIndex: 93
      m_TileSpriteIndex: 93
      m_TileMatrixIndex: 0
      m_TileColorIndex: 0
      m_TileObjectToInstantiateIndex: 65535
      m_AllTileFlags: 1073741825
  - first: {x: 10, y: -7, z: 0}
    second:
      serializedVersion: 2
      m_TileIndex: 94
      m_TileSpriteIndex: 94
      m_TileMatrixIndex: 0
      m_TileColorIndex: 0
      m_TileObjectToInstantiateIndex: 65535
      m_AllTileFlags: 1073741825
  - first: {x: 11, y: -7, z: 0}
    second:
      serializedVersion: 2
      m_TileIndex: 95
      m_TileSpriteIndex: 95
      m_TileMatrixIndex: 0
      m_TileColorIndex: 0
      m_TileObjectToInstantiateIndex: 65535
      m_AllTileFlags: 1073741825
  - first: {x: 12, y: -7, z: 0}
    second:
      serializedVersion: 2
      m_TileIndex: 96
      m_TileSpriteIndex: 96
      m_TileMatrixIndex: 0
      m_TileColorIndex: 0
      m_TileObjectToInstantiateIndex: 65535
      m_AllTileFlags: 1073741825
  - first: {x: 0, y: -6, z: 0}
    second:
      serializedVersion: 2
      m_TileIndex: 72
      m_TileSpriteIndex: 72
      m_TileMatrixIndex: 0
      m_TileColorIndex: 0
      m_TileObjectToInstantiateIndex: 65535
      m_AllTileFlags: 1073741825
  - first: {x: 1, y: -6, z: 0}
    second:
      serializedVersion: 2
      m_TileIndex: 73
      m_TileSpriteIndex: 73
      m_TileMatrixIndex: 0
      m_TileColorIndex: 0
      m_TileObjectToInstantiateIndex: 65535
      m_AllTileFlags: 1073741825
  - first: {x: 2, y: -6, z: 0}
    second:
      serializedVersion: 2
      m_TileIndex: 74
      m_TileSpriteIndex: 74
      m_TileMatrixIndex: 0
      m_TileColorIndex: 0
      m_TileObjectToInstantiateIndex: 65535
      m_AllTileFlags: 1073741825
  - first: {x: 3, y: -6, z: 0}
    second:
      serializedVersion: 2
      m_TileIndex: 75
      m_TileSpriteIndex: 75
      m_TileMatrixIndex: 0
      m_TileColorIndex: 0
      m_TileObjectToInstantiateIndex: 65535
      m_AllTileFlags: 1073741825
  - first: {x: 4, y: -6, z: 0}
    second:
      serializedVersion: 2
      m_TileIndex: 76
      m_TileSpriteIndex: 76
      m_TileMatrixIndex: 0
      m_TileColorIndex: 0
      m_TileObjectToInstantiateIndex: 65535
      m_AllTileFlags: 1073741825
  - first: {x: 5, y: -6, z: 0}
    second:
      serializedVersion: 2
      m_TileIndex: 77
      m_TileSpriteIndex: 77
      m_TileMatrixIndex: 0
      m_TileColorIndex: 0
      m_TileObjectToInstantiateIndex: 65535
      m_AllTileFlags: 1073741825
  - first: {x: 6, y: -6, z: 0}
    second:
      serializedVersion: 2
      m_TileIndex: 78
      m_TileSpriteIndex: 78
      m_TileMatrixIndex: 0
      m_TileColorIndex: 0
      m_TileObjectToInstantiateIndex: 65535
      m_AllTileFlags: 1073741825
  - first: {x: 7, y: -6, z: 0}
    second:
      serializedVersion: 2
      m_TileIndex: 79
      m_TileSpriteIndex: 79
      m_TileMatrixIndex: 0
      m_TileColorIndex: 0
      m_TileObjectToInstantiateIndex: 65535
      m_AllTileFlags: 1073741825
  - first: {x: 8, y: -6, z: 0}
    second:
      serializedVersion: 2
      m_TileIndex: 80
      m_TileSpriteIndex: 80
      m_TileMatrixIndex: 0
      m_TileColorIndex: 0
      m_TileObjectToInstantiateIndex: 65535
      m_AllTileFlags: 1073741825
  - first: {x: 9, y: -6, z: 0}
    second:
      serializedVersion: 2
      m_TileIndex: 81
      m_TileSpriteIndex: 81
      m_TileMatrixIndex: 0
      m_TileColorIndex: 0
      m_TileObjectToInstantiateIndex: 65535
      m_AllTileFlags: 1073741825
  - first: {x: 10, y: -6, z: 0}
    second:
      serializedVersion: 2
      m_TileIndex: 82
      m_TileSpriteIndex: 82
      m_TileMatrixIndex: 0
      m_TileColorIndex: 0
      m_TileObjectToInstantiateIndex: 65535
      m_AllTileFlags: 1073741825
  - first: {x: 11, y: -6, z: 0}
    second:
      serializedVersion: 2
      m_TileIndex: 83
      m_TileSpriteIndex: 83
      m_TileMatrixIndex: 0
      m_TileColorIndex: 0
      m_TileObjectToInstantiateIndex: 65535
      m_AllTileFlags: 1073741825
  - first: {x: 12, y: -6, z: 0}
    second:
      serializedVersion: 2
      m_TileIndex: 84
      m_TileSpriteIndex: 84
      m_TileMatrixIndex: 0
      m_TileColorIndex: 0
      m_TileObjectToInstantiateIndex: 65535
      m_AllTileFlags: 1073741825
  - first: {x: 0, y: -5, z: 0}
    second:
      serializedVersion: 2
      m_TileIndex: 59
      m_TileSpriteIndex: 59
      m_TileMatrixIndex: 0
      m_TileColorIndex: 0
      m_TileObjectToInstantiateIndex: 65535
      m_AllTileFlags: 1073741825
  - first: {x: 1, y: -5, z: 0}
    second:
      serializedVersion: 2
      m_TileIndex: 60
      m_TileSpriteIndex: 60
      m_TileMatrixIndex: 0
      m_TileColorIndex: 0
      m_TileObjectToInstantiateIndex: 65535
      m_AllTileFlags: 1073741825
  - first: {x: 2, y: -5, z: 0}
    second:
      serializedVersion: 2
      m_TileIndex: 61
      m_TileSpriteIndex: 61
      m_TileMatrixIndex: 0
      m_TileColorIndex: 0
      m_TileObjectToInstantiateIndex: 65535
      m_AllTileFlags: 1073741825
  - first: {x: 3, y: -5, z: 0}
    second:
      serializedVersion: 2
      m_TileIndex: 62
      m_TileSpriteIndex: 62
      m_TileMatrixIndex: 0
      m_TileColorIndex: 0
      m_TileObjectToInstantiateIndex: 65535
      m_AllTileFlags: 1073741825
  - first: {x: 4, y: -5, z: 0}
    second:
      serializedVersion: 2
      m_TileIndex: 63
      m_TileSpriteIndex: 63
      m_TileMatrixIndex: 0
      m_TileColorIndex: 0
      m_TileObjectToInstantiateIndex: 65535
      m_AllTileFlags: 1073741825
  - first: {x: 5, y: -5, z: 0}
    second:
      serializedVersion: 2
      m_TileIndex: 64
      m_TileSpriteIndex: 64
      m_TileMatrixIndex: 0
      m_TileColorIndex: 0
      m_TileObjectToInstantiateIndex: 65535
      m_AllTileFlags: 1073741825
  - first: {x: 6, y: -5, z: 0}
    second:
      serializedVersion: 2
      m_TileIndex: 65
      m_TileSpriteIndex: 65
      m_TileMatrixIndex: 0
      m_TileColorIndex: 0
      m_TileObjectToInstantiateIndex: 65535
      m_AllTileFlags: 1073741825
  - first: {x: 7, y: -5, z: 0}
    second:
      serializedVersion: 2
      m_TileIndex: 66
      m_TileSpriteIndex: 66
      m_TileMatrixIndex: 0
      m_TileColorIndex: 0
      m_TileObjectToInstantiateIndex: 65535
      m_AllTileFlags: 1073741825
  - first: {x: 8, y: -5, z: 0}
    second:
      serializedVersion: 2
      m_TileIndex: 67
      m_TileSpriteIndex: 67
      m_TileMatrixIndex: 0
      m_TileColorIndex: 0
      m_TileObjectToInstantiateIndex: 65535
      m_AllTileFlags: 1073741825
  - first: {x: 9, y: -5, z: 0}
    second:
      serializedVersion: 2
      m_TileIndex: 68
      m_TileSpriteIndex: 68
      m_TileMatrixIndex: 0
      m_TileColorIndex: 0
      m_TileObjectToInstantiateIndex: 65535
      m_AllTileFlags: 1073741825
  - first: {x: 10, y: -5, z: 0}
    second:
      serializedVersion: 2
      m_TileIndex: 69
      m_TileSpriteIndex: 69
      m_TileMatrixIndex: 0
      m_TileColorIndex: 0
      m_TileObjectToInstantiateIndex: 65535
      m_AllTileFlags: 1073741825
  - first: {x: 11, y: -5, z: 0}
    second:
      serializedVersion: 2
      m_TileIndex: 70
      m_TileSpriteIndex: 70
      m_TileMatrixIndex: 0
      m_TileColorIndex: 0
      m_TileObjectToInstantiateIndex: 65535
      m_AllTileFlags: 1073741825
  - first: {x: 12, y: -5, z: 0}
    second:
      serializedVersion: 2
      m_TileIndex: 71
      m_TileSpriteIndex: 71
      m_TileMatrixIndex: 0
      m_TileColorIndex: 0
      m_TileObjectToInstantiateIndex: 65535
      m_AllTileFlags: 1073741825
  - first: {x: 0, y: -4, z: 0}
    second:
      serializedVersion: 2
      m_TileIndex: 47
      m_TileSpriteIndex: 47
      m_TileMatrixIndex: 0
      m_TileColorIndex: 0
      m_TileObjectToInstantiateIndex: 65535
      m_AllTileFlags: 1073741825
  - first: {x: 1, y: -4, z: 0}
    second:
      serializedVersion: 2
      m_TileIndex: 48
      m_TileSpriteIndex: 48
      m_TileMatrixIndex: 0
      m_TileColorIndex: 0
      m_TileObjectToInstantiateIndex: 65535
      m_AllTileFlags: 1073741825
  - first: {x: 2, y: -4, z: 0}
    second:
      serializedVersion: 2
      m_TileIndex: 49
      m_TileSpriteIndex: 49
      m_TileMatrixIndex: 0
      m_TileColorIndex: 0
      m_TileObjectToInstantiateIndex: 65535
      m_AllTileFlags: 1073741825
  - first: {x: 3, y: -4, z: 0}
    second:
      serializedVersion: 2
      m_TileIndex: 50
      m_TileSpriteIndex: 50
      m_TileMatrixIndex: 0
      m_TileColorIndex: 0
      m_TileObjectToInstantiateIndex: 65535
      m_AllTileFlags: 1073741825
  - first: {x: 4, y: -4, z: 0}
    second:
      serializedVersion: 2
      m_TileIndex: 51
      m_TileSpriteIndex: 51
      m_TileMatrixIndex: 0
      m_TileColorIndex: 0
      m_TileObjectToInstantiateIndex: 65535
      m_AllTileFlags: 1073741825
  - first: {x: 5, y: -4, z: 0}
    second:
      serializedVersion: 2
      m_TileIndex: 52
      m_TileSpriteIndex: 52
      m_TileMatrixIndex: 0
      m_TileColorIndex: 0
      m_TileObjectToInstantiateIndex: 65535
      m_AllTileFlags: 1073741825
  - first: {x: 6, y: -4, z: 0}
    second:
      serializedVersion: 2
      m_TileIndex: 53
      m_TileSpriteIndex: 53
      m_TileMatrixIndex: 0
      m_TileColorIndex: 0
      m_TileObjectToInstantiateIndex: 65535
      m_AllTileFlags: 1073741825
  - first: {x: 7, y: -4, z: 0}
    second:
      serializedVersion: 2
      m_TileIndex: 54
      m_TileSpriteIndex: 54
      m_TileMatrixIndex: 0
      m_TileColorIndex: 0
      m_TileObjectToInstantiateIndex: 65535
      m_AllTileFlags: 1073741825
  - first: {x: 8, y: -4, z: 0}
    second:
      serializedVersion: 2
      m_TileIndex: 55
      m_TileSpriteIndex: 55
      m_TileMatrixIndex: 0
      m_TileColorIndex: 0
      m_TileObjectToInstantiateIndex: 65535
      m_AllTileFlags: 1073741825
  - first: {x: 9, y: -4, z: 0}
    second:
      serializedVersion: 2
      m_TileIndex: 56
      m_TileSpriteIndex: 56
      m_TileMatrixIndex: 0
      m_TileColorIndex: 0
      m_TileObjectToInstantiateIndex: 65535
      m_AllTileFlags: 1073741825
  - first: {x: 10, y: -4, z: 0}
    second:
      serializedVersion: 2
      m_TileIndex: 57
      m_TileSpriteIndex: 57
      m_TileMatrixIndex: 0
      m_TileColorIndex: 0
      m_TileObjectToInstantiateIndex: 65535
      m_AllTileFlags: 1073741825
  - first: {x: 12, y: -4, z: 0}
    second:
      serializedVersion: 2
      m_TileIndex: 58
      m_TileSpriteIndex: 58
      m_TileMatrixIndex: 0
      m_TileColorIndex: 0
      m_TileObjectToInstantiateIndex: 65535
      m_AllTileFlags: 1073741825
  - first: {x: 1, y: -3, z: 0}
    second:
      serializedVersion: 2
      m_TileIndex: 36
      m_TileSpriteIndex: 36
      m_TileMatrixIndex: 0
      m_TileColorIndex: 0
      m_TileObjectToInstantiateIndex: 65535
      m_AllTileFlags: 1073741825
  - first: {x: 3, y: -3, z: 0}
    second:
      serializedVersion: 2
      m_TileIndex: 37
      m_TileSpriteIndex: 37
      m_TileMatrixIndex: 0
      m_TileColorIndex: 0
      m_TileObjectToInstantiateIndex: 65535
      m_AllTileFlags: 1073741825
  - first: {x: 4, y: -3, z: 0}
    second:
      serializedVersion: 2
      m_TileIndex: 38
      m_TileSpriteIndex: 38
      m_TileMatrixIndex: 0
      m_TileColorIndex: 0
      m_TileObjectToInstantiateIndex: 65535
      m_AllTileFlags: 1073741825
  - first: {x: 5, y: -3, z: 0}
    second:
      serializedVersion: 2
      m_TileIndex: 39
      m_TileSpriteIndex: 39
      m_TileMatrixIndex: 0
      m_TileColorIndex: 0
      m_TileObjectToInstantiateIndex: 65535
      m_AllTileFlags: 1073741825
  - first: {x: 6, y: -3, z: 0}
    second:
      serializedVersion: 2
      m_TileIndex: 40
      m_TileSpriteIndex: 40
      m_TileMatrixIndex: 0
      m_TileColorIndex: 0
      m_TileObjectToInstantiateIndex: 65535
      m_AllTileFlags: 1073741825
  - first: {x: 7, y: -3, z: 0}
    second:
      serializedVersion: 2
      m_TileIndex: 41
      m_TileSpriteIndex: 41
      m_TileMatrixIndex: 0
      m_TileColorIndex: 0
      m_TileObjectToInstantiateIndex: 65535
      m_AllTileFlags: 1073741825
  - first: {x: 8, y: -3, z: 0}
    second:
      serializedVersion: 2
      m_TileIndex: 42
      m_TileSpriteIndex: 42
      m_TileMatrixIndex: 0
      m_TileColorIndex: 0
      m_TileObjectToInstantiateIndex: 65535
      m_AllTileFlags: 1073741825
  - first: {x: 9, y: -3, z: 0}
    second:
      serializedVersion: 2
      m_TileIndex: 43
      m_TileSpriteIndex: 43
      m_TileMatrixIndex: 0
      m_TileColorIndex: 0
      m_TileObjectToInstantiateIndex: 65535
      m_AllTileFlags: 1073741825
  - first: {x: 10, y: -3, z: 0}
    second:
      serializedVersion: 2
      m_TileIndex: 44
      m_TileSpriteIndex: 44
      m_TileMatrixIndex: 0
      m_TileColorIndex: 0
      m_TileObjectToInstantiateIndex: 65535
      m_AllTileFlags: 1073741825
  - first: {x: 11, y: -3, z: 0}
    second:
      serializedVersion: 2
      m_TileIndex: 45
      m_TileSpriteIndex: 45
      m_TileMatrixIndex: 0
      m_TileColorIndex: 0
      m_TileObjectToInstantiateIndex: 65535
      m_AllTileFlags: 1073741825
  - first: {x: 12, y: -3, z: 0}
    second:
      serializedVersion: 2
      m_TileIndex: 46
      m_TileSpriteIndex: 46
      m_TileMatrixIndex: 0
      m_TileColorIndex: 0
      m_TileObjectToInstantiateIndex: 65535
      m_AllTileFlags: 1073741825
  - first: {x: 0, y: -2, z: 0}
    second:
      serializedVersion: 2
      m_TileIndex: 24
      m_TileSpriteIndex: 24
      m_TileMatrixIndex: 0
      m_TileColorIndex: 0
      m_TileObjectToInstantiateIndex: 65535
      m_AllTileFlags: 1073741825
  - first: {x: 1, y: -2, z: 0}
    second:
      serializedVersion: 2
      m_TileIndex: 25
      m_TileSpriteIndex: 25
      m_TileMatrixIndex: 0
      m_TileColorIndex: 0
      m_TileObjectToInstantiateIndex: 65535
      m_AllTileFlags: 1073741825
  - first: {x: 2, y: -2, z: 0}
    second:
      serializedVersion: 2
      m_TileIndex: 26
      m_TileSpriteIndex: 26
      m_TileMatrixIndex: 0
      m_TileColorIndex: 0
      m_TileObjectToInstantiateIndex: 65535
      m_AllTileFlags: 1073741825
  - first: {x: 4, y: -2, z: 0}
    second:
      serializedVersion: 2
      m_TileIndex: 27
      m_TileSpriteIndex: 27
      m_TileMatrixIndex: 0
      m_TileColorIndex: 0
      m_TileObjectToInstantiateIndex: 65535
      m_AllTileFlags: 1073741825
  - first: {x: 5, y: -2, z: 0}
    second:
      serializedVersion: 2
      m_TileIndex: 28
      m_TileSpriteIndex: 28
      m_TileMatrixIndex: 0
      m_TileColorIndex: 0
      m_TileObjectToInstantiateIndex: 65535
      m_AllTileFlags: 1073741825
  - first: {x: 6, y: -2, z: 0}
    second:
      serializedVersion: 2
      m_TileIndex: 29
      m_TileSpriteIndex: 29
      m_TileMatrixIndex: 0
      m_TileColorIndex: 0
      m_TileObjectToInstantiateIndex: 65535
      m_AllTileFlags: 1073741825
  - first: {x: 7, y: -2, z: 0}
    second:
      serializedVersion: 2
      m_TileIndex: 30
      m_TileSpriteIndex: 30
      m_TileMatrixIndex: 0
      m_TileColorIndex: 0
      m_TileObjectToInstantiateIndex: 65535
      m_AllTileFlags: 1073741825
  - first: {x: 8, y: -2, z: 0}
    second:
      serializedVersion: 2
      m_TileIndex: 31
      m_TileSpriteIndex: 31
      m_TileMatrixIndex: 0
      m_TileColorIndex: 0
      m_TileObjectToInstantiateIndex: 65535
      m_AllTileFlags: 1073741825
  - first: {x: 9, y: -2, z: 0}
    second:
      serializedVersion: 2
      m_TileIndex: 32
      m_TileSpriteIndex: 32
      m_TileMatrixIndex: 0
      m_TileColorIndex: 0
      m_TileObjectToInstantiateIndex: 65535
      m_AllTileFlags: 1073741825
  - first: {x: 10, y: -2, z: 0}
    second:
      serializedVersion: 2
      m_TileIndex: 33
      m_TileSpriteIndex: 33
      m_TileMatrixIndex: 0
      m_TileColorIndex: 0
      m_TileObjectToInstantiateIndex: 65535
      m_AllTileFlags: 1073741825
  - first: {x: 11, y: -2, z: 0}
    second:
      serializedVersion: 2
      m_TileIndex: 34
      m_TileSpriteIndex: 34
      m_TileMatrixIndex: 0
      m_TileColorIndex: 0
      m_TileObjectToInstantiateIndex: 65535
      m_AllTileFlags: 1073741825
  - first: {x: 12, y: -2, z: 0}
    second:
      serializedVersion: 2
      m_TileIndex: 35
      m_TileSpriteIndex: 35
      m_TileMatrixIndex: 0
      m_TileColorIndex: 0
      m_TileObjectToInstantiateIndex: 65535
      m_AllTileFlags: 1073741825
  - first: {x: 0, y: -1, z: 0}
    second:
      serializedVersion: 2
      m_TileIndex: 13
      m_TileSpriteIndex: 13
      m_TileMatrixIndex: 0
      m_TileColorIndex: 0
      m_TileObjectToInstantiateIndex: 65535
      m_AllTileFlags: 1073741825
  - first: {x: 1, y: -1, z: 0}
    second:
      serializedVersion: 2
      m_TileIndex: 14
      m_TileSpriteIndex: 14
      m_TileMatrixIndex: 0
      m_TileColorIndex: 0
      m_TileObjectToInstantiateIndex: 65535
      m_AllTileFlags: 1073741825
  - first: {x: 2, y: -1, z: 0}
    second:
      serializedVersion: 2
      m_TileIndex: 15
      m_TileSpriteIndex: 15
      m_TileMatrixIndex: 0
      m_TileColorIndex: 0
      m_TileObjectToInstantiateIndex: 65535
      m_AllTileFlags: 1073741825
  - first: {x: 4, y: -1, z: 0}
    second:
      serializedVersion: 2
      m_TileIndex: 16
      m_TileSpriteIndex: 16
      m_TileMatrixIndex: 0
      m_TileColorIndex: 0
      m_TileObjectToInstantiateIndex: 65535
      m_AllTileFlags: 1073741825
  - first: {x: 6, y: -1, z: 0}
    second:
      serializedVersion: 2
      m_TileIndex: 17
      m_TileSpriteIndex: 17
      m_TileMatrixIndex: 0
      m_TileColorIndex: 0
      m_TileObjectToInstantiateIndex: 65535
      m_AllTileFlags: 1073741825
  - first: {x: 7, y: -1, z: 0}
    second:
      serializedVersion: 2
      m_TileIndex: 18
      m_TileSpriteIndex: 18
      m_TileMatrixIndex: 0
      m_TileColorIndex: 0
      m_TileObjectToInstantiateIndex: 65535
      m_AllTileFlags: 1073741825
  - first: {x: 8, y: -1, z: 0}
    second:
      serializedVersion: 2
      m_TileIndex: 19
      m_TileSpriteIndex: 19
      m_TileMatrixIndex: 0
      m_TileColorIndex: 0
      m_TileObjectToInstantiateIndex: 65535
      m_AllTileFlags: 1073741825
  - first: {x: 9, y: -1, z: 0}
    second:
      serializedVersion: 2
      m_TileIndex: 20
      m_TileSpriteIndex: 20
      m_TileMatrixIndex: 0
      m_TileColorIndex: 0
      m_TileObjectToInstantiateIndex: 65535
      m_AllTileFlags: 1073741825
  - first: {x: 10, y: -1, z: 0}
    second:
      serializedVersion: 2
      m_TileIndex: 21
      m_TileSpriteIndex: 21
      m_TileMatrixIndex: 0
      m_TileColorIndex: 0
      m_TileObjectToInstantiateIndex: 65535
      m_AllTileFlags: 1073741825
  - first: {x: 11, y: -1, z: 0}
    second:
      serializedVersion: 2
      m_TileIndex: 22
      m_TileSpriteIndex: 22
      m_TileMatrixIndex: 0
      m_TileColorIndex: 0
      m_TileObjectToInstantiateIndex: 65535
      m_AllTileFlags: 1073741825
  - first: {x: 12, y: -1, z: 0}
    second:
      serializedVersion: 2
      m_TileIndex: 23
      m_TileSpriteIndex: 23
      m_TileMatrixIndex: 0
      m_TileColorIndex: 0
      m_TileObjectToInstantiateIndex: 65535
      m_AllTileFlags: 1073741825
  - first: {x: 0, y: 0, z: 0}
    second:
      serializedVersion: 2
      m_TileIndex: 0
      m_TileSpriteIndex: 0
      m_TileMatrixIndex: 0
      m_TileColorIndex: 0
      m_TileObjectToInstantiateIndex: 65535
      m_AllTileFlags: 1073741825
  - first: {x: 1, y: 0, z: 0}
    second:
      serializedVersion: 2
      m_TileIndex: 1
      m_TileSpriteIndex: 1
      m_TileMatrixIndex: 0
      m_TileColorIndex: 0
      m_TileObjectToInstantiateIndex: 65535
      m_AllTileFlags: 1073741825
  - first: {x: 2, y: 0, z: 0}
    second:
      serializedVersion: 2
      m_TileIndex: 2
      m_TileSpriteIndex: 2
      m_TileMatrixIndex: 0
      m_TileColorIndex: 0
      m_TileObjectToInstantiateIndex: 65535
      m_AllTileFlags: 1073741825
  - first: {x: 3, y: 0, z: 0}
    second:
      serializedVersion: 2
      m_TileIndex: 3
      m_TileSpriteIndex: 3
      m_TileMatrixIndex: 0
      m_TileColorIndex: 0
      m_TileObjectToInstantiateIndex: 65535
      m_AllTileFlags: 1073741825
  - first: {x: 4, y: 0, z: 0}
    second:
      serializedVersion: 2
      m_TileIndex: 4
      m_TileSpriteIndex: 4
      m_TileMatrixIndex: 0
      m_TileColorIndex: 0
      m_TileObjectToInstantiateIndex: 65535
      m_AllTileFlags: 1073741825
  - first: {x: 5, y: 0, z: 0}
    second:
      serializedVersion: 2
      m_TileIndex: 5
      m_TileSpriteIndex: 5
      m_TileMatrixIndex: 0
      m_TileColorIndex: 0
      m_TileObjectToInstantiateIndex: 65535
      m_AllTileFlags: 1073741825
  - first: {x: 6, y: 0, z: 0}
    second:
      serializedVersion: 2
      m_TileIndex: 6
      m_TileSpriteIndex: 6
      m_TileMatrixIndex: 0
      m_TileColorIndex: 0
      m_TileObjectToInstantiateIndex: 65535
      m_AllTileFlags: 1073741825
  - first: {x: 7, y: 0, z: 0}
    second:
      serializedVersion: 2
      m_TileIndex: 7
      m_TileSpriteIndex: 7
      m_TileMatrixIndex: 0
      m_TileColorIndex: 0
      m_TileObjectToInstantiateIndex: 65535
      m_AllTileFlags: 1073741825
  - first: {x: 8, y: 0, z: 0}
    second:
      serializedVersion: 2
      m_TileIndex: 8
      m_TileSpriteIndex: 8
      m_TileMatrixIndex: 0
      m_TileColorIndex: 0
      m_TileObjectToInstantiateIndex: 65535
      m_AllTileFlags: 1073741825
  - first: {x: 9, y: 0, z: 0}
    second:
      serializedVersion: 2
      m_TileIndex: 9
      m_TileSpriteIndex: 9
      m_TileMatrixIndex: 0
      m_TileColorIndex: 0
      m_TileObjectToInstantiateIndex: 65535
      m_AllTileFlags: 1073741825
  - first: {x: 10, y: 0, z: 0}
    second:
      serializedVersion: 2
      m_TileIndex: 10
      m_TileSpriteIndex: 10
      m_TileMatrixIndex: 0
      m_TileColorIndex: 0
      m_TileObjectToInstantiateIndex: 65535
      m_AllTileFlags: 1073741825
  - first: {x: 11, y: 0, z: 0}
    second:
      serializedVersion: 2
      m_TileIndex: 11
      m_TileSpriteIndex: 11
      m_TileMatrixIndex: 0
      m_TileColorIndex: 0
      m_TileObjectToInstantiateIndex: 65535
      m_AllTileFlags: 1073741825
  - first: {x: 12, y: 0, z: 0}
    second:
      serializedVersion: 2
      m_TileIndex: 12
      m_TileSpriteIndex: 12
      m_TileMatrixIndex: 0
      m_TileColorIndex: 0
      m_TileObjectToInstantiateIndex: 65535
      m_AllTileFlags: 1073741825
  m_AnimatedTiles: {}
  m_TileAssetArray:
  - m_RefCount: 1
    m_Data: {fileID: 11400000, guid: d127ef776ad0a794c9ca82da371637f4, type: 2}
  - m_RefCount: 1
    m_Data: {fileID: 11400000, guid: 009fae0382c5b6d42a730642d88d38d0, type: 2}
  - m_RefCount: 1
    m_Data: {fileID: 11400000, guid: 99209307421c05c42aceda9cd878b5a8, type: 2}
  - m_RefCount: 1
    m_Data: {fileID: 11400000, guid: ef9c173bc5dbae34985c04179633641d, type: 2}
  - m_RefCount: 1
    m_Data: {fileID: 11400000, guid: 2166df81793fc014a83d396dda8750a1, type: 2}
  - m_RefCount: 1
    m_Data: {fileID: 11400000, guid: 337b7fd8ef9f2a94ebe6c86ddbecafb5, type: 2}
  - m_RefCount: 1
    m_Data: {fileID: 11400000, guid: 93e74c8219b9f8d45a648cf1ce4668da, type: 2}
  - m_RefCount: 1
    m_Data: {fileID: 11400000, guid: 3b6e9b84f3cd4ec4d920975bd7df35a6, type: 2}
  - m_RefCount: 1
    m_Data: {fileID: 11400000, guid: c9d5120b998fae54ab68531c6eddee16, type: 2}
  - m_RefCount: 1
    m_Data: {fileID: 11400000, guid: 94b3edfb41408154692bd99f9643c533, type: 2}
  - m_RefCount: 1
    m_Data: {fileID: 11400000, guid: 534e7f85e6e644e4ba0396cb69539d0b, type: 2}
  - m_RefCount: 1
    m_Data: {fileID: 11400000, guid: 68ee5adbaacfb264489106b866071a45, type: 2}
  - m_RefCount: 1
    m_Data: {fileID: 11400000, guid: 85cb4af40c717fa409f5581bb38535b6, type: 2}
  - m_RefCount: 1
    m_Data: {fileID: 11400000, guid: 5b6f860fd1b0e1c429d8efb1e73eda17, type: 2}
  - m_RefCount: 1
    m_Data: {fileID: 11400000, guid: 21c873287782d4b49b8f91619fde5af3, type: 2}
  - m_RefCount: 1
    m_Data: {fileID: 11400000, guid: dd92fd6d669475848a5f2b3e30310835, type: 2}
  - m_RefCount: 1
    m_Data: {fileID: 11400000, guid: 6b6be5b03aff33a43b7c94e832846ca9, type: 2}
  - m_RefCount: 1
    m_Data: {fileID: 11400000, guid: da06b1b854a5efb47abe0b4f99894a7c, type: 2}
  - m_RefCount: 1
    m_Data: {fileID: 11400000, guid: ee1482264cd3b3b4d8ef3258758c3dfa, type: 2}
  - m_RefCount: 1
    m_Data: {fileID: 11400000, guid: be55ea19f510830409bfd2e3871b7192, type: 2}
  - m_RefCount: 1
    m_Data: {fileID: 11400000, guid: 1d9be2e5ad944a842b608747ac8ee749, type: 2}
  - m_RefCount: 1
    m_Data: {fileID: 11400000, guid: b1bf4e9b64be6974a8150b822b994206, type: 2}
  - m_RefCount: 1
    m_Data: {fileID: 11400000, guid: df0f7ec3f6b33e643af940a5738c8823, type: 2}
  - m_RefCount: 1
    m_Data: {fileID: 11400000, guid: f50d24090c359e14c9e99801f00f543a, type: 2}
  - m_RefCount: 1
    m_Data: {fileID: 11400000, guid: 294b4d75d99f7224c840fc3acd5bd0bd, type: 2}
  - m_RefCount: 1
    m_Data: {fileID: 11400000, guid: efd1465809bc8354eb06d7c1d84bd4ef, type: 2}
  - m_RefCount: 1
    m_Data: {fileID: 11400000, guid: 1c095d043c89a2349abccaa3cf35b004, type: 2}
  - m_RefCount: 1
    m_Data: {fileID: 11400000, guid: ae32002d28101e74cadd59e770e55748, type: 2}
  - m_RefCount: 1
    m_Data: {fileID: 11400000, guid: b62396b465e87eb4dbe95556498b41b8, type: 2}
  - m_RefCount: 1
    m_Data: {fileID: 11400000, guid: b55f001f9adba3f44aac29d91c50cff3, type: 2}
  - m_RefCount: 1
    m_Data: {fileID: 11400000, guid: 81a7c73db4a101a45a64572481002e99, type: 2}
  - m_RefCount: 1
    m_Data: {fileID: 11400000, guid: 4c3ba57ecd00019498fe2257ca10d9ff, type: 2}
  - m_RefCount: 1
    m_Data: {fileID: 11400000, guid: e677032925404ed41a70007c0dc0f981, type: 2}
  - m_RefCount: 1
    m_Data: {fileID: 11400000, guid: eb4be6d61d69a8a48a7cea93244fbcb1, type: 2}
  - m_RefCount: 1
    m_Data: {fileID: 11400000, guid: 7c24b98145da75f448fe198d8aa1b964, type: 2}
  - m_RefCount: 1
    m_Data: {fileID: 11400000, guid: 078944d802d17304995d10df6e480b7c, type: 2}
  - m_RefCount: 1
    m_Data: {fileID: 11400000, guid: 5db752374955cc445989747e45478798, type: 2}
  - m_RefCount: 1
    m_Data: {fileID: 11400000, guid: f9339b2da41e84243ad793db052bca16, type: 2}
  - m_RefCount: 1
    m_Data: {fileID: 11400000, guid: c5f32f23947d1134fabb1242fb51dbd9, type: 2}
  - m_RefCount: 1
    m_Data: {fileID: 11400000, guid: 13d08e607e598d64bad7c20db9f3c91c, type: 2}
  - m_RefCount: 1
    m_Data: {fileID: 11400000, guid: e61f826358d2f0c42befa9f7671c5995, type: 2}
  - m_RefCount: 1
    m_Data: {fileID: 11400000, guid: 182bdd8b0a489b247826e955de8e6a99, type: 2}
  - m_RefCount: 1
    m_Data: {fileID: 11400000, guid: 67da9bdd14fce6541b5d9511870341e1, type: 2}
  - m_RefCount: 1
    m_Data: {fileID: 11400000, guid: 5d2eaf1b6f8e99647b329c0c76c01559, type: 2}
  - m_RefCount: 1
    m_Data: {fileID: 11400000, guid: 71921c0e4e7259941870013acf374d4c, type: 2}
  - m_RefCount: 1
    m_Data: {fileID: 11400000, guid: c68876db7e313bc42a0ca8bd90371dd7, type: 2}
  - m_RefCount: 1
    m_Data: {fileID: 11400000, guid: 0ab887119dd4e2646a6f84e6e594f642, type: 2}
  - m_RefCount: 1
    m_Data: {fileID: 11400000, guid: 6515ce015c735624683346d7a1144939, type: 2}
  - m_RefCount: 1
    m_Data: {fileID: 11400000, guid: 6a75a32fa2dfec64e86152a0115b37c0, type: 2}
  - m_RefCount: 1
    m_Data: {fileID: 11400000, guid: df325a34fc4e4214e94dde95ec4cd0c5, type: 2}
  - m_RefCount: 1
    m_Data: {fileID: 11400000, guid: 08a495080b7b2024d905d679621d62b9, type: 2}
  - m_RefCount: 1
    m_Data: {fileID: 11400000, guid: df0f18203f2ee9448b62219b8e8d3c8e, type: 2}
  - m_RefCount: 1
    m_Data: {fileID: 11400000, guid: d2c0c9da5987dd04fbb5a7eb90f7f443, type: 2}
  - m_RefCount: 1
    m_Data: {fileID: 11400000, guid: 85f9103916b8c5f44ad5be500e5b698f, type: 2}
  - m_RefCount: 1
    m_Data: {fileID: 11400000, guid: 1b76dcf26b14f1746ac8cead8659cfb2, type: 2}
  - m_RefCount: 1
    m_Data: {fileID: 11400000, guid: 3f982c14493a9e54986837069a4f9b58, type: 2}
  - m_RefCount: 1
    m_Data: {fileID: 11400000, guid: dbe4ea9bf417d7a4bb923d4f6d9b2810, type: 2}
  - m_RefCount: 1
    m_Data: {fileID: 11400000, guid: 8c51995e4d8250747b572f17be81db1a, type: 2}
  - m_RefCount: 1
    m_Data: {fileID: 11400000, guid: 0909c2e9c09c1f44d9a57d61d7f8610e, type: 2}
  - m_RefCount: 1
    m_Data: {fileID: 11400000, guid: 6c78155ab5a892c47af2f6cf24cf0940, type: 2}
  - m_RefCount: 1
    m_Data: {fileID: 11400000, guid: 96ab94d1f85217846bdf17892e93ec49, type: 2}
  - m_RefCount: 1
    m_Data: {fileID: 11400000, guid: 75f5ce2d6ff70964a96c6be0324f06f6, type: 2}
  - m_RefCount: 1
    m_Data: {fileID: 11400000, guid: 18e3bbef62518374480630c145e9fdc8, type: 2}
  - m_RefCount: 1
    m_Data: {fileID: 11400000, guid: 8fd6a77ebf1355f42bd6bb3a0d22a20c, type: 2}
  - m_RefCount: 1
    m_Data: {fileID: 11400000, guid: a4b299e5c8a7dc24f9857671ee86e728, type: 2}
  - m_RefCount: 1
    m_Data: {fileID: 11400000, guid: 7880f6f5a6e18854cb5431ffb4101332, type: 2}
  - m_RefCount: 1
    m_Data: {fileID: 11400000, guid: 1ff45637252b6a74fb3d4f904a7be4b9, type: 2}
  - m_RefCount: 1
    m_Data: {fileID: 11400000, guid: f8d206312d3016942b81a84ae01abad2, type: 2}
  - m_RefCount: 1
    m_Data: {fileID: 11400000, guid: f756d0089eba1c748934ab71b16e3da7, type: 2}
  - m_RefCount: 1
    m_Data: {fileID: 11400000, guid: 935f1b427867d4e4ab0285467d89f8f7, type: 2}
  - m_RefCount: 1
    m_Data: {fileID: 11400000, guid: 3330cd2e598bac346be030e8084d9765, type: 2}
  - m_RefCount: 1
    m_Data: {fileID: 11400000, guid: 7b888dd1c2cb6c3418226ebc2b91d615, type: 2}
  - m_RefCount: 1
    m_Data: {fileID: 11400000, guid: c682f6160de72e9419805ef144935672, type: 2}
  - m_RefCount: 1
    m_Data: {fileID: 11400000, guid: 6312990d5beeea84492ae11a56f9cb5a, type: 2}
  - m_RefCount: 1
    m_Data: {fileID: 11400000, guid: b33a11b02ef26484a888156ef8e4e242, type: 2}
  - m_RefCount: 1
    m_Data: {fileID: 11400000, guid: fe8ab3cd32716b247b3944d509740a2b, type: 2}
  - m_RefCount: 1
    m_Data: {fileID: 11400000, guid: b2af9381caea9984bbba3e2df05154cf, type: 2}
  - m_RefCount: 1
    m_Data: {fileID: 11400000, guid: 7d78f4976a19a7b409d688870e99714e, type: 2}
  - m_RefCount: 1
    m_Data: {fileID: 11400000, guid: d8db71233ee75dc49a4d9f82575bc3ab, type: 2}
  - m_RefCount: 1
    m_Data: {fileID: 11400000, guid: 785415f52e067dc489744303fa1f2b2a, type: 2}
  - m_RefCount: 1
    m_Data: {fileID: 11400000, guid: 54cbaa2cf1271f64894f36544c24f666, type: 2}
  - m_RefCount: 1
    m_Data: {fileID: 11400000, guid: 8648d31d23a2f3f49abac56fb8846bd8, type: 2}
  - m_RefCount: 1
    m_Data: {fileID: 11400000, guid: a1396ffc332211a44a200669af10a41e, type: 2}
  - m_RefCount: 1
    m_Data: {fileID: 11400000, guid: f3f79e05374947847a186c83fb657b43, type: 2}
  - m_RefCount: 1
    m_Data: {fileID: 11400000, guid: 623917c4ceed45e4280922219fc52ddd, type: 2}
  - m_RefCount: 1
    m_Data: {fileID: 11400000, guid: 2fa4d38a41a4e394e9706ae803755d9c, type: 2}
  - m_RefCount: 1
    m_Data: {fileID: 11400000, guid: d6fc988486f711340b57d1b969774db6, type: 2}
  - m_RefCount: 1
    m_Data: {fileID: 11400000, guid: 5988e451264782b41946d202b9dd3b19, type: 2}
  - m_RefCount: 1
    m_Data: {fileID: 11400000, guid: f1c010afa21aadc4cac099d832cd992f, type: 2}
  - m_RefCount: 1
    m_Data: {fileID: 11400000, guid: b5b118e55e54c7e47934cbfbe9c0a7e0, type: 2}
  - m_RefCount: 1
    m_Data: {fileID: 11400000, guid: 7c26abf53c23ddf468eeab8ddb82971a, type: 2}
  - m_RefCount: 1
    m_Data: {fileID: 11400000, guid: 9492768fbb730484b8e68234c12ba2d1, type: 2}
  - m_RefCount: 1
    m_Data: {fileID: 11400000, guid: a95491e392cefab45b1b4c2be4c77064, type: 2}
  - m_RefCount: 1
    m_Data: {fileID: 11400000, guid: ece37d55378773245b686e4251a6d959, type: 2}
  - m_RefCount: 1
    m_Data: {fileID: 11400000, guid: f0019fab5ded212448aad1beb3dd86d4, type: 2}
  - m_RefCount: 1
    m_Data: {fileID: 11400000, guid: 59c6a28e64a0f774ea48da25cc07f8ba, type: 2}
  - m_RefCount: 1
    m_Data: {fileID: 11400000, guid: 5cd8f7aa7d0bf8b428367c161e2c7be4, type: 2}
  - m_RefCount: 1
    m_Data: {fileID: 11400000, guid: f7dd7d7a1f3a1184eae63dd5fab96475, type: 2}
  - m_RefCount: 1
    m_Data: {fileID: 11400000, guid: 31429516207c96e43af86b1056f50375, type: 2}
  - m_RefCount: 1
    m_Data: {fileID: 11400000, guid: ae93e40f1165d0e4196dc89983ccc916, type: 2}
  - m_RefCount: 1
    m_Data: {fileID: 11400000, guid: a7e60bdb9fb982e439b32eb0efcc260e, type: 2}
  - m_RefCount: 1
    m_Data: {fileID: 11400000, guid: 64b7215be5609ba499efa801f10c4cf7, type: 2}
  - m_RefCount: 1
    m_Data: {fileID: 11400000, guid: 527549686f2731542825efee02c2208a, type: 2}
  - m_RefCount: 1
    m_Data: {fileID: 11400000, guid: bcd3c67d13cfb264bb398fbd9aaa02bf, type: 2}
  - m_RefCount: 1
    m_Data: {fileID: 11400000, guid: 3008d21961eb03f40998bac3b0c58d2a, type: 2}
  - m_RefCount: 1
    m_Data: {fileID: 11400000, guid: 313241bc3d0462a47a1b673e11f49abe, type: 2}
  - m_RefCount: 1
    m_Data: {fileID: 11400000, guid: 20970e47363a4864490d5119ba372580, type: 2}
  - m_RefCount: 1
    m_Data: {fileID: 11400000, guid: d96ef72472edc6945b3d9f7acc860f9f, type: 2}
  - m_RefCount: 1
    m_Data: {fileID: 11400000, guid: bb90f7005a4e2b14886ec5ab775e4f4b, type: 2}
  - m_RefCount: 1
    m_Data: {fileID: 11400000, guid: 9038c04c57798f146968a6ee1965a3b2, type: 2}
  - m_RefCount: 1
    m_Data: {fileID: 11400000, guid: a3db894d4453bfa459ac7bd8b0a26dde, type: 2}
  - m_RefCount: 1
    m_Data: {fileID: 11400000, guid: af9f094c334fef3489ae81081540f51c, type: 2}
  - m_RefCount: 1
    m_Data: {fileID: 11400000, guid: 55c67a2787cab4148b6b1ccf71e24010, type: 2}
  - m_RefCount: 1
    m_Data: {fileID: 11400000, guid: 27c070f4f1a6c4e4fa8224ca372d4ff7, type: 2}
  - m_RefCount: 1
    m_Data: {fileID: 11400000, guid: dae2f313598d71848bab89ef6e733ae2, type: 2}
  - m_RefCount: 1
    m_Data: {fileID: 11400000, guid: eea58f0ad4494054bbd9364be1501bfa, type: 2}
  - m_RefCount: 1
    m_Data: {fileID: 11400000, guid: deccec10907b86e4db7a5ecf55238a8c, type: 2}
  - m_RefCount: 1
    m_Data: {fileID: 11400000, guid: 369e716010154ae4fb1548a845d55cea, type: 2}
  - m_RefCount: 1
    m_Data: {fileID: 11400000, guid: f3c2240e2899c164dad8ed3f0bfb9b4e, type: 2}
  - m_RefCount: 1
    m_Data: {fileID: 11400000, guid: 33af81b1553633f49a4cd01b148aea47, type: 2}
  - m_RefCount: 1
    m_Data: {fileID: 11400000, guid: a8b6da73c785d024e8b760f6a63a8792, type: 2}
  - m_RefCount: 1
    m_Data: {fileID: 11400000, guid: ae0beb66524c2d7409b8ae15c4f9e37d, type: 2}
  - m_RefCount: 1
    m_Data: {fileID: 11400000, guid: 6a856f0245fa8cc418406fef018debda, type: 2}
  - m_RefCount: 1
    m_Data: {fileID: 11400000, guid: f0ed4853f872ba44a8f75a445ddd5234, type: 2}
  - m_RefCount: 1
    m_Data: {fileID: 11400000, guid: 44a8eb7f394aa544e89a13df8fb0f6b4, type: 2}
  - m_RefCount: 1
    m_Data: {fileID: 11400000, guid: af496da2db340b444b391942fcbfda7a, type: 2}
  - m_RefCount: 1
    m_Data: {fileID: 11400000, guid: 4791ec188ba9a6d4e957dbb40d45a056, type: 2}
  - m_RefCount: 1
    m_Data: {fileID: 11400000, guid: de5f43579b0a665408991d147a9ed9c9, type: 2}
  - m_RefCount: 1
    m_Data: {fileID: 11400000, guid: d55f37721c883494190ed03c27a39d8e, type: 2}
  - m_RefCount: 1
    m_Data: {fileID: 11400000, guid: f4913049b2097bc4d8b1c695353060dc, type: 2}
  - m_RefCount: 1
    m_Data: {fileID: 11400000, guid: fd2a8ed4e5079854b9b9e479ebe35635, type: 2}
  - m_RefCount: 1
    m_Data: {fileID: 11400000, guid: be9b452444fd2fa4e9bca50fe1130c65, type: 2}
  - m_RefCount: 1
    m_Data: {fileID: 11400000, guid: 9e9f272de48dc9d4493d30856024f25d, type: 2}
  - m_RefCount: 1
    m_Data: {fileID: 11400000, guid: dd1949e751ef990429b75d1dd42516b5, type: 2}
  - m_RefCount: 1
    m_Data: {fileID: 11400000, guid: 4d5ef1a84705ef84391adb04341bcbee, type: 2}
  - m_RefCount: 1
    m_Data: {fileID: 11400000, guid: c3d1649f8a785ae4089f5449105e10ed, type: 2}
  - m_RefCount: 1
    m_Data: {fileID: 11400000, guid: 75fd7110972996245a78373b2f715bc3, type: 2}
  - m_RefCount: 1
    m_Data: {fileID: 11400000, guid: 2251b69ac019d344580feaf1fcd60d33, type: 2}
  - m_RefCount: 1
    m_Data: {fileID: 11400000, guid: ba204c50e34a65e438114c3dc42da12e, type: 2}
  - m_RefCount: 1
    m_Data: {fileID: 11400000, guid: e340bd657ff5f7b45b844975765b4d15, type: 2}
  - m_RefCount: 1
    m_Data: {fileID: 11400000, guid: 1d4055fec69772b49b87d2f0ae09a9e2, type: 2}
  - m_RefCount: 1
    m_Data: {fileID: 11400000, guid: a642226ceac61374590aeddd75bdabd4, type: 2}
  - m_RefCount: 1
    m_Data: {fileID: 11400000, guid: 60171cb87ec771940b5ba2ecfe1bd137, type: 2}
  - m_RefCount: 1
    m_Data: {fileID: 11400000, guid: 095c8f27357eb324698e395963f7e8d2, type: 2}
  - m_RefCount: 1
    m_Data: {fileID: 11400000, guid: a868a3b6f77114f44ba0b7b293b8b1d0, type: 2}
  - m_RefCount: 1
    m_Data: {fileID: 11400000, guid: 6b863ad3e96c1a947a39b0a4a99ca430, type: 2}
  - m_RefCount: 1
    m_Data: {fileID: 11400000, guid: 86d368ea162117f47bc910107563367b, type: 2}
  - m_RefCount: 1
    m_Data: {fileID: 11400000, guid: ffe2c673fca68564a9b6cb26e33242df, type: 2}
  - m_RefCount: 1
    m_Data: {fileID: 11400000, guid: 1accf7516752c2d4694f56976f0c768a, type: 2}
  - m_RefCount: 1
    m_Data: {fileID: 11400000, guid: a3ac81a5c8312d647bb7f1da3d979ce0, type: 2}
  - m_RefCount: 1
    m_Data: {fileID: 11400000, guid: 8d5d7a5fe8fc52e47bf6460c15a60cc4, type: 2}
  - m_RefCount: 1
    m_Data: {fileID: 11400000, guid: 757cfc09bb4241040b37f3e86e97b35c, type: 2}
  m_TileSpriteArray:
  - m_RefCount: 1
    m_Data: {fileID: -5875947808492245422, guid: 4bc75537c6b4326468a35d25acf7d4b8,
      type: 3}
  - m_RefCount: 1
    m_Data: {fileID: -7083688265198519061, guid: 4bc75537c6b4326468a35d25acf7d4b8,
      type: 3}
  - m_RefCount: 1
    m_Data: {fileID: -522714208698159747, guid: 4bc75537c6b4326468a35d25acf7d4b8,
      type: 3}
  - m_RefCount: 1
    m_Data: {fileID: 4373342067780363318, guid: 4bc75537c6b4326468a35d25acf7d4b8,
      type: 3}
  - m_RefCount: 1
    m_Data: {fileID: 2550458541851663171, guid: 4bc75537c6b4326468a35d25acf7d4b8,
      type: 3}
  - m_RefCount: 1
    m_Data: {fileID: 8160669560524651864, guid: 4bc75537c6b4326468a35d25acf7d4b8,
      type: 3}
  - m_RefCount: 1
    m_Data: {fileID: 1445801011978352121, guid: 4bc75537c6b4326468a35d25acf7d4b8,
      type: 3}
  - m_RefCount: 1
    m_Data: {fileID: 1091483196076263772, guid: 4bc75537c6b4326468a35d25acf7d4b8,
      type: 3}
  - m_RefCount: 1
    m_Data: {fileID: -4825545999795936124, guid: 4bc75537c6b4326468a35d25acf7d4b8,
      type: 3}
  - m_RefCount: 1
    m_Data: {fileID: -7996880838732631555, guid: 4bc75537c6b4326468a35d25acf7d4b8,
      type: 3}
  - m_RefCount: 1
    m_Data: {fileID: -7946129751145502730, guid: 4bc75537c6b4326468a35d25acf7d4b8,
      type: 3}
  - m_RefCount: 1
    m_Data: {fileID: -1624772360938543890, guid: 4bc75537c6b4326468a35d25acf7d4b8,
      type: 3}
  - m_RefCount: 1
    m_Data: {fileID: -1531081573811884777, guid: 4bc75537c6b4326468a35d25acf7d4b8,
      type: 3}
  - m_RefCount: 1
    m_Data: {fileID: 1671220495058711042, guid: 4bc75537c6b4326468a35d25acf7d4b8,
      type: 3}
  - m_RefCount: 1
    m_Data: {fileID: -1713284242649423168, guid: 4bc75537c6b4326468a35d25acf7d4b8,
      type: 3}
  - m_RefCount: 1
    m_Data: {fileID: -7104365971622590950, guid: 4bc75537c6b4326468a35d25acf7d4b8,
      type: 3}
  - m_RefCount: 1
    m_Data: {fileID: 1283041800245995309, guid: 4bc75537c6b4326468a35d25acf7d4b8,
      type: 3}
  - m_RefCount: 1
    m_Data: {fileID: -765156019400187778, guid: 4bc75537c6b4326468a35d25acf7d4b8,
      type: 3}
  - m_RefCount: 1
    m_Data: {fileID: -1086255160853349439, guid: 4bc75537c6b4326468a35d25acf7d4b8,
      type: 3}
  - m_RefCount: 1
    m_Data: {fileID: 1185078201084365946, guid: 4bc75537c6b4326468a35d25acf7d4b8,
      type: 3}
  - m_RefCount: 1
    m_Data: {fileID: 3005788492047571258, guid: 4bc75537c6b4326468a35d25acf7d4b8,
      type: 3}
  - m_RefCount: 1
    m_Data: {fileID: 1665002975558015937, guid: 4bc75537c6b4326468a35d25acf7d4b8,
      type: 3}
  - m_RefCount: 1
    m_Data: {fileID: -3934910173926649044, guid: 4bc75537c6b4326468a35d25acf7d4b8,
      type: 3}
  - m_RefCount: 1
    m_Data: {fileID: 6952265616875753477, guid: 4bc75537c6b4326468a35d25acf7d4b8,
      type: 3}
  - m_RefCount: 1
    m_Data: {fileID: 554192426708693470, guid: 4bc75537c6b4326468a35d25acf7d4b8, type: 3}
  - m_RefCount: 1
    m_Data: {fileID: 144176938051983383, guid: 4bc75537c6b4326468a35d25acf7d4b8, type: 3}
  - m_RefCount: 1
    m_Data: {fileID: -1521930634636876429, guid: 4bc75537c6b4326468a35d25acf7d4b8,
      type: 3}
  - m_RefCount: 1
    m_Data: {fileID: 8449211440691002714, guid: 4bc75537c6b4326468a35d25acf7d4b8,
      type: 3}
  - m_RefCount: 1
    m_Data: {fileID: 5142685516234731452, guid: 4bc75537c6b4326468a35d25acf7d4b8,
      type: 3}
  - m_RefCount: 1
    m_Data: {fileID: -8469491692849325455, guid: 4bc75537c6b4326468a35d25acf7d4b8,
      type: 3}
  - m_RefCount: 1
    m_Data: {fileID: 1097693377347596343, guid: 4bc75537c6b4326468a35d25acf7d4b8,
      type: 3}
  - m_RefCount: 1
    m_Data: {fileID: -1782435024220558580, guid: 4bc75537c6b4326468a35d25acf7d4b8,
      type: 3}
  - m_RefCount: 1
    m_Data: {fileID: -5912325515321804627, guid: 4bc75537c6b4326468a35d25acf7d4b8,
      type: 3}
  - m_RefCount: 1
    m_Data: {fileID: -3838358334088984205, guid: 4bc75537c6b4326468a35d25acf7d4b8,
      type: 3}
  - m_RefCount: 1
    m_Data: {fileID: -3722689371176300269, guid: 4bc75537c6b4326468a35d25acf7d4b8,
      type: 3}
  - m_RefCount: 1
    m_Data: {fileID: 1138740474548789276, guid: 4bc75537c6b4326468a35d25acf7d4b8,
      type: 3}
  - m_RefCount: 1
    m_Data: {fileID: 24645230697934626, guid: 4bc75537c6b4326468a35d25acf7d4b8, type: 3}
  - m_RefCount: 1
    m_Data: {fileID: -8171961345708330914, guid: 4bc75537c6b4326468a35d25acf7d4b8,
      type: 3}
  - m_RefCount: 1
    m_Data: {fileID: 4152649519613839817, guid: 4bc75537c6b4326468a35d25acf7d4b8,
      type: 3}
  - m_RefCount: 1
    m_Data: {fileID: -9022089130141321908, guid: 4bc75537c6b4326468a35d25acf7d4b8,
      type: 3}
  - m_RefCount: 1
    m_Data: {fileID: 1676026446027551136, guid: 4bc75537c6b4326468a35d25acf7d4b8,
      type: 3}
  - m_RefCount: 1
    m_Data: {fileID: 6928264335838399003, guid: 4bc75537c6b4326468a35d25acf7d4b8,
      type: 3}
  - m_RefCount: 1
    m_Data: {fileID: 5049682329866325897, guid: 4bc75537c6b4326468a35d25acf7d4b8,
      type: 3}
  - m_RefCount: 1
    m_Data: {fileID: -2358351321944534468, guid: 4bc75537c6b4326468a35d25acf7d4b8,
      type: 3}
  - m_RefCount: 1
    m_Data: {fileID: 9199772091523165900, guid: 4bc75537c6b4326468a35d25acf7d4b8,
      type: 3}
  - m_RefCount: 1
    m_Data: {fileID: 2033135997217179413, guid: 4bc75537c6b4326468a35d25acf7d4b8,
      type: 3}
  - m_RefCount: 1
    m_Data: {fileID: 2546958848465860507, guid: 4bc75537c6b4326468a35d25acf7d4b8,
      type: 3}
  - m_RefCount: 1
    m_Data: {fileID: 3365279357497371574, guid: 4bc75537c6b4326468a35d25acf7d4b8,
      type: 3}
  - m_RefCount: 1
    m_Data: {fileID: -4706117868217500947, guid: 4bc75537c6b4326468a35d25acf7d4b8,
      type: 3}
  - m_RefCount: 1
    m_Data: {fileID: -9214110029354260456, guid: 4bc75537c6b4326468a35d25acf7d4b8,
      type: 3}
  - m_RefCount: 1
    m_Data: {fileID: -323981079135335361, guid: 4bc75537c6b4326468a35d25acf7d4b8,
      type: 3}
  - m_RefCount: 1
    m_Data: {fileID: -7719897929585536087, guid: 4bc75537c6b4326468a35d25acf7d4b8,
      type: 3}
  - m_RefCount: 1
    m_Data: {fileID: -7213534242101745318, guid: 4bc75537c6b4326468a35d25acf7d4b8,
      type: 3}
  - m_RefCount: 1
    m_Data: {fileID: 4270420726907709771, guid: 4bc75537c6b4326468a35d25acf7d4b8,
      type: 3}
  - m_RefCount: 1
    m_Data: {fileID: 2674150623540933220, guid: 4bc75537c6b4326468a35d25acf7d4b8,
      type: 3}
  - m_RefCount: 1
    m_Data: {fileID: -1516128048528721019, guid: 4bc75537c6b4326468a35d25acf7d4b8,
      type: 3}
  - m_RefCount: 1
    m_Data: {fileID: -3867139274045154833, guid: 4bc75537c6b4326468a35d25acf7d4b8,
      type: 3}
  - m_RefCount: 1
    m_Data: {fileID: 3598508880891147503, guid: 4bc75537c6b4326468a35d25acf7d4b8,
      type: 3}
  - m_RefCount: 1
    m_Data: {fileID: 1626051946534721468, guid: 4bc75537c6b4326468a35d25acf7d4b8,
      type: 3}
  - m_RefCount: 1
    m_Data: {fileID: 6124428130120010921, guid: 4bc75537c6b4326468a35d25acf7d4b8,
      type: 3}
  - m_RefCount: 1
    m_Data: {fileID: 4334944770032336649, guid: 4bc75537c6b4326468a35d25acf7d4b8,
      type: 3}
  - m_RefCount: 1
    m_Data: {fileID: -9086655944403612596, guid: 4bc75537c6b4326468a35d25acf7d4b8,
      type: 3}
  - m_RefCount: 1
    m_Data: {fileID: -7051969188380022505, guid: 4bc75537c6b4326468a35d25acf7d4b8,
      type: 3}
  - m_RefCount: 1
    m_Data: {fileID: 1433195701472979411, guid: 4bc75537c6b4326468a35d25acf7d4b8,
      type: 3}
  - m_RefCount: 1
    m_Data: {fileID: -4893992391784692388, guid: 4bc75537c6b4326468a35d25acf7d4b8,
      type: 3}
  - m_RefCount: 1
    m_Data: {fileID: -6917597032144374583, guid: 4bc75537c6b4326468a35d25acf7d4b8,
      type: 3}
  - m_RefCount: 1
    m_Data: {fileID: 3166937993207426509, guid: 4bc75537c6b4326468a35d25acf7d4b8,
      type: 3}
  - m_RefCount: 1
    m_Data: {fileID: -7104527001098315733, guid: 4bc75537c6b4326468a35d25acf7d4b8,
      type: 3}
  - m_RefCount: 1
    m_Data: {fileID: 6328128846566273024, guid: 4bc75537c6b4326468a35d25acf7d4b8,
      type: 3}
  - m_RefCount: 1
    m_Data: {fileID: 7114783123042984469, guid: 4bc75537c6b4326468a35d25acf7d4b8,
      type: 3}
  - m_RefCount: 1
    m_Data: {fileID: -7798470574635007945, guid: 4bc75537c6b4326468a35d25acf7d4b8,
      type: 3}
  - m_RefCount: 1
    m_Data: {fileID: -2887196832513407048, guid: 4bc75537c6b4326468a35d25acf7d4b8,
      type: 3}
  - m_RefCount: 1
    m_Data: {fileID: -257080426843533398, guid: 4bc75537c6b4326468a35d25acf7d4b8,
      type: 3}
  - m_RefCount: 1
    m_Data: {fileID: -8786139837149008262, guid: 4bc75537c6b4326468a35d25acf7d4b8,
      type: 3}
  - m_RefCount: 1
    m_Data: {fileID: -658173976716222557, guid: 4bc75537c6b4326468a35d25acf7d4b8,
      type: 3}
  - m_RefCount: 1
    m_Data: {fileID: -9092005743864134005, guid: 4bc75537c6b4326468a35d25acf7d4b8,
      type: 3}
  - m_RefCount: 1
    m_Data: {fileID: 3155538072380696194, guid: 4bc75537c6b4326468a35d25acf7d4b8,
      type: 3}
  - m_RefCount: 1
    m_Data: {fileID: 8142577846477567665, guid: 4bc75537c6b4326468a35d25acf7d4b8,
      type: 3}
  - m_RefCount: 1
    m_Data: {fileID: 8994469424343376492, guid: 4bc75537c6b4326468a35d25acf7d4b8,
      type: 3}
  - m_RefCount: 1
    m_Data: {fileID: -3855538105067188313, guid: 4bc75537c6b4326468a35d25acf7d4b8,
      type: 3}
  - m_RefCount: 1
    m_Data: {fileID: 671559557556084532, guid: 4bc75537c6b4326468a35d25acf7d4b8, type: 3}
  - m_RefCount: 1
    m_Data: {fileID: -1875267816715338938, guid: 4bc75537c6b4326468a35d25acf7d4b8,
      type: 3}
  - m_RefCount: 1
    m_Data: {fileID: -4155114274305506845, guid: 4bc75537c6b4326468a35d25acf7d4b8,
      type: 3}
  - m_RefCount: 1
    m_Data: {fileID: 7541420077399344370, guid: 4bc75537c6b4326468a35d25acf7d4b8,
      type: 3}
  - m_RefCount: 1
    m_Data: {fileID: 2912487055085404663, guid: 4bc75537c6b4326468a35d25acf7d4b8,
      type: 3}
  - m_RefCount: 1
    m_Data: {fileID: -4815467551413623611, guid: 4bc75537c6b4326468a35d25acf7d4b8,
      type: 3}
  - m_RefCount: 1
    m_Data: {fileID: 7846301504293966117, guid: 4bc75537c6b4326468a35d25acf7d4b8,
      type: 3}
  - m_RefCount: 1
    m_Data: {fileID: -6491283614677980909, guid: 4bc75537c6b4326468a35d25acf7d4b8,
      type: 3}
  - m_RefCount: 1
    m_Data: {fileID: 3871184325934086886, guid: 4bc75537c6b4326468a35d25acf7d4b8,
      type: 3}
  - m_RefCount: 1
    m_Data: {fileID: 6615695069385551822, guid: 4bc75537c6b4326468a35d25acf7d4b8,
      type: 3}
  - m_RefCount: 1
    m_Data: {fileID: 9043594573121575856, guid: 4bc75537c6b4326468a35d25acf7d4b8,
      type: 3}
  - m_RefCount: 1
    m_Data: {fileID: -3085318492669779895, guid: 4bc75537c6b4326468a35d25acf7d4b8,
      type: 3}
  - m_RefCount: 1
    m_Data: {fileID: -1628525152836151732, guid: 4bc75537c6b4326468a35d25acf7d4b8,
      type: 3}
  - m_RefCount: 1
    m_Data: {fileID: -2604786560852620949, guid: 4bc75537c6b4326468a35d25acf7d4b8,
      type: 3}
  - m_RefCount: 1
    m_Data: {fileID: 6333870252846115126, guid: 4bc75537c6b4326468a35d25acf7d4b8,
      type: 3}
  - m_RefCount: 1
    m_Data: {fileID: 1796749821989640711, guid: 4bc75537c6b4326468a35d25acf7d4b8,
      type: 3}
  - m_RefCount: 1
    m_Data: {fileID: 8893952504475361379, guid: 4bc75537c6b4326468a35d25acf7d4b8,
      type: 3}
  - m_RefCount: 1
    m_Data: {fileID: 4838265462506013015, guid: 4bc75537c6b4326468a35d25acf7d4b8,
      type: 3}
  - m_RefCount: 1
    m_Data: {fileID: -902107622712190061, guid: 4bc75537c6b4326468a35d25acf7d4b8,
      type: 3}
  - m_RefCount: 1
    m_Data: {fileID: 5633327351464643444, guid: 4bc75537c6b4326468a35d25acf7d4b8,
      type: 3}
  - m_RefCount: 1
    m_Data: {fileID: -1859774155879145297, guid: 4bc75537c6b4326468a35d25acf7d4b8,
      type: 3}
  - m_RefCount: 1
    m_Data: {fileID: -9074195889025034227, guid: 4bc75537c6b4326468a35d25acf7d4b8,
      type: 3}
  - m_RefCount: 1
    m_Data: {fileID: 3621493704927484922, guid: 4bc75537c6b4326468a35d25acf7d4b8,
      type: 3}
  - m_RefCount: 1
    m_Data: {fileID: -7281556310193798487, guid: 4bc75537c6b4326468a35d25acf7d4b8,
      type: 3}
  - m_RefCount: 1
    m_Data: {fileID: -2303531413852929027, guid: 4bc75537c6b4326468a35d25acf7d4b8,
      type: 3}
  - m_RefCount: 1
    m_Data: {fileID: -6245644319609100214, guid: 4bc75537c6b4326468a35d25acf7d4b8,
      type: 3}
  - m_RefCount: 1
    m_Data: {fileID: -2764190449584868414, guid: 4bc75537c6b4326468a35d25acf7d4b8,
      type: 3}
  - m_RefCount: 1
    m_Data: {fileID: -2291279910784490218, guid: 4bc75537c6b4326468a35d25acf7d4b8,
      type: 3}
  - m_RefCount: 1
    m_Data: {fileID: -4429799734465264116, guid: 4bc75537c6b4326468a35d25acf7d4b8,
      type: 3}
  - m_RefCount: 1
    m_Data: {fileID: 5010013490687566340, guid: 4bc75537c6b4326468a35d25acf7d4b8,
      type: 3}
  - m_RefCount: 1
    m_Data: {fileID: -6281049078771281854, guid: 4bc75537c6b4326468a35d25acf7d4b8,
      type: 3}
  - m_RefCount: 1
    m_Data: {fileID: 6871273924687165058, guid: 4bc75537c6b4326468a35d25acf7d4b8,
      type: 3}
  - m_RefCount: 1
    m_Data: {fileID: 5888315241878709267, guid: 4bc75537c6b4326468a35d25acf7d4b8,
      type: 3}
  - m_RefCount: 1
    m_Data: {fileID: -4525545992728078688, guid: 4bc75537c6b4326468a35d25acf7d4b8,
      type: 3}
  - m_RefCount: 1
    m_Data: {fileID: 5188221657478520980, guid: 4bc75537c6b4326468a35d25acf7d4b8,
      type: 3}
  - m_RefCount: 1
    m_Data: {fileID: -3909030960831251809, guid: 4bc75537c6b4326468a35d25acf7d4b8,
      type: 3}
  - m_RefCount: 1
    m_Data: {fileID: 7260197937938810090, guid: 4bc75537c6b4326468a35d25acf7d4b8,
      type: 3}
  - m_RefCount: 1
    m_Data: {fileID: -3141301322275456207, guid: 4bc75537c6b4326468a35d25acf7d4b8,
      type: 3}
  - m_RefCount: 1
    m_Data: {fileID: -3391574745370351337, guid: 4bc75537c6b4326468a35d25acf7d4b8,
      type: 3}
  - m_RefCount: 1
    m_Data: {fileID: 7768557843083777322, guid: 4bc75537c6b4326468a35d25acf7d4b8,
      type: 3}
  - m_RefCount: 1
    m_Data: {fileID: 3016137428738969237, guid: 4bc75537c6b4326468a35d25acf7d4b8,
      type: 3}
  - m_RefCount: 1
    m_Data: {fileID: -5869238515350079854, guid: 4bc75537c6b4326468a35d25acf7d4b8,
      type: 3}
  - m_RefCount: 1
    m_Data: {fileID: -2786542700767631049, guid: 4bc75537c6b4326468a35d25acf7d4b8,
      type: 3}
  - m_RefCount: 1
    m_Data: {fileID: -7860145515025413958, guid: 4bc75537c6b4326468a35d25acf7d4b8,
      type: 3}
  - m_RefCount: 1
    m_Data: {fileID: 8980574616141411926, guid: 4bc75537c6b4326468a35d25acf7d4b8,
      type: 3}
  - m_RefCount: 1
    m_Data: {fileID: 1050186668349912095, guid: 4bc75537c6b4326468a35d25acf7d4b8,
      type: 3}
  - m_RefCount: 1
    m_Data: {fileID: -6919049499808914480, guid: 4bc75537c6b4326468a35d25acf7d4b8,
      type: 3}
  - m_RefCount: 1
    m_Data: {fileID: 6098171810374777305, guid: 4bc75537c6b4326468a35d25acf7d4b8,
      type: 3}
  - m_RefCount: 1
    m_Data: {fileID: -8643243919810550418, guid: 4bc75537c6b4326468a35d25acf7d4b8,
      type: 3}
  - m_RefCount: 1
    m_Data: {fileID: -626561631268643363, guid: 4bc75537c6b4326468a35d25acf7d4b8,
      type: 3}
  - m_RefCount: 1
    m_Data: {fileID: 327896514573997012, guid: 4bc75537c6b4326468a35d25acf7d4b8, type: 3}
  - m_RefCount: 1
    m_Data: {fileID: -634623502658354515, guid: 4bc75537c6b4326468a35d25acf7d4b8,
      type: 3}
  - m_RefCount: 1
    m_Data: {fileID: 4066291011765407416, guid: 4bc75537c6b4326468a35d25acf7d4b8,
      type: 3}
  - m_RefCount: 1
    m_Data: {fileID: -2451504573495523051, guid: 4bc75537c6b4326468a35d25acf7d4b8,
      type: 3}
  - m_RefCount: 1
    m_Data: {fileID: -6594420431001854809, guid: 4bc75537c6b4326468a35d25acf7d4b8,
      type: 3}
  - m_RefCount: 1
    m_Data: {fileID: 6407582826286998447, guid: 4bc75537c6b4326468a35d25acf7d4b8,
      type: 3}
  - m_RefCount: 1
    m_Data: {fileID: 5471472253819852646, guid: 4bc75537c6b4326468a35d25acf7d4b8,
      type: 3}
  - m_RefCount: 1
    m_Data: {fileID: 6947248333348324345, guid: 4bc75537c6b4326468a35d25acf7d4b8,
      type: 3}
  - m_RefCount: 1
    m_Data: {fileID: 5471235333101503367, guid: 4bc75537c6b4326468a35d25acf7d4b8,
      type: 3}
  - m_RefCount: 1
    m_Data: {fileID: 1249510213557360573, guid: 4bc75537c6b4326468a35d25acf7d4b8,
      type: 3}
  - m_RefCount: 1
    m_Data: {fileID: 1241437413875453790, guid: 4bc75537c6b4326468a35d25acf7d4b8,
      type: 3}
  - m_RefCount: 1
    m_Data: {fileID: -2434984747196307595, guid: 4bc75537c6b4326468a35d25acf7d4b8,
      type: 3}
  - m_RefCount: 1
    m_Data: {fileID: 2459072247452953768, guid: 4bc75537c6b4326468a35d25acf7d4b8,
      type: 3}
  - m_RefCount: 1
    m_Data: {fileID: 9051977070073964407, guid: 4bc75537c6b4326468a35d25acf7d4b8,
      type: 3}
  - m_RefCount: 1
    m_Data: {fileID: -805347439022743088, guid: 4bc75537c6b4326468a35d25acf7d4b8,
      type: 3}
  - m_RefCount: 1
    m_Data: {fileID: -6126401449006402344, guid: 4bc75537c6b4326468a35d25acf7d4b8,
      type: 3}
  - m_RefCount: 1
    m_Data: {fileID: 1678306211068334048, guid: 4bc75537c6b4326468a35d25acf7d4b8,
      type: 3}
  - m_RefCount: 1
    m_Data: {fileID: 5438998430294516991, guid: 4bc75537c6b4326468a35d25acf7d4b8,
      type: 3}
  - m_RefCount: 1
    m_Data: {fileID: -2645727272246082040, guid: 4bc75537c6b4326468a35d25acf7d4b8,
      type: 3}
  - m_RefCount: 1
    m_Data: {fileID: 8414548618954537011, guid: 4bc75537c6b4326468a35d25acf7d4b8,
      type: 3}
  - m_RefCount: 1
    m_Data: {fileID: 3505520246149899695, guid: 4bc75537c6b4326468a35d25acf7d4b8,
      type: 3}
  - m_RefCount: 1
    m_Data: {fileID: 1442763979793924040, guid: 4bc75537c6b4326468a35d25acf7d4b8,
      type: 3}
  m_TileMatrixArray:
  - m_RefCount: 152
    m_Data:
      e00: 1
      e01: 0
      e02: 0
      e03: 0
      e10: 0
      e11: 1
      e12: 0
      e13: 0
      e20: 0
      e21: 0
      e22: 1
      e23: 0
      e30: 0
      e31: 0
      e32: 0
      e33: 1
  m_TileColorArray:
  - m_RefCount: 152
    m_Data: {r: 1, g: 1, b: 1, a: 1}
  m_TileObjectToInstantiateArray: []
  m_AnimationFrameRate: 1
  m_Color: {r: 1, g: 1, b: 1, a: 1}
  m_Origin: {x: 0, y: -12, z: 0}
  m_Size: {x: 13, y: 13, z: 1}
  m_TileAnchor: {x: 0.5, y: 0.5, z: 0}
  m_TileOrientation: 0
  m_TileOrientationMatrix:
    e00: 1
    e01: 0
    e02: 0
    e03: 0
    e10: 0
    e11: 1
    e12: 0
    e13: 0
    e20: 0
    e21: 0
    e22: 1
    e23: 0
    e30: 0
    e31: 0
    e32: 0
    e33: 1
--- !u!483693784 &4304652167340473015
TilemapRenderer:
  m_ObjectHideFlags: 0
  m_CorrespondingSourceObject: {fileID: 0}
  m_PrefabInstance: {fileID: 0}
  m_PrefabAsset: {fileID: 0}
  m_GameObject: {fileID: 9204873830577462782}
  m_Enabled: 1
  m_CastShadows: 0
  m_ReceiveShadows: 0
  m_DynamicOccludee: 1
  m_MotionVectors: 1
  m_LightProbeUsage: 0
  m_ReflectionProbeUsage: 0
  m_RayTracingMode: 0
  m_RayTraceProcedural: 0
  m_RenderingLayerMask: 1
  m_RendererPriority: 0
  m_Materials:
  - {fileID: 10754, guid: 0000000000000000f000000000000000, type: 0}
  m_StaticBatchInfo:
    firstSubMesh: 0
    subMeshCount: 0
  m_StaticBatchRoot: {fileID: 0}
  m_ProbeAnchor: {fileID: 0}
  m_LightProbeVolumeOverride: {fileID: 0}
  m_ScaleInLightmap: 1
  m_ReceiveGI: 1
  m_PreserveUVs: 0
  m_IgnoreNormalsForChartDetection: 0
  m_ImportantGI: 0
  m_StitchLightmapSeams: 1
  m_SelectedEditorRenderState: 0
  m_MinimumChartSize: 4
  m_AutoUVMaxDistance: 0.5
  m_AutoUVMaxAngle: 89
  m_LightmapParameters: {fileID: 0}
  m_SortingLayerID: 0
  m_SortingLayer: 0
  m_SortingOrder: 0
  m_ChunkSize: {x: 32, y: 32, z: 32}
  m_ChunkCullingBounds: {x: 0, y: 0, z: 0}
  m_MaxChunkCount: 16
  m_MaxFrameAge: 16
  m_SortOrder: 0
  m_Mode: 0
  m_DetectChunkCullingBounds: 0
  m_MaskInteraction: 0
--- !u!114 &4996523517533399453
MonoBehaviour:
  m_ObjectHideFlags: 0
  m_CorrespondingSourceObject: {fileID: 0}
  m_PrefabInstance: {fileID: 0}
  m_PrefabAsset: {fileID: 0}
  m_GameObject: {fileID: 0}
  m_Enabled: 1
  m_EditorHideFlags: 0
  m_Script: {fileID: 12395, guid: 0000000000000000e000000000000000, type: 0}
  m_Name: Palette Settings
  m_EditorClassIdentifier: 
  cellSizing: 0
